Time: 0
{0: '0%', 1: '0%', 3: '0%', 4: '0%', 5: '0%'}
----------------------------------------------------------
Time: 2
{0: '0%', 1: '0%', 3: '0%', 4: '0%', 5: '0%'}
----------------------------------------------------------
Time: 4
{0: '0%', 1: '45%', 3: '0%', 4: '0%', 5: '0%'}
----------------------------------------------------------
Time: 6
{0: '0%', 1: '63%', 3: '31%', 4: '0%', 5: '0%'}
----------------------------------------------------------
Time: 8
{0: '0%', 1: '72%', 3: '48%', 4: '0%', 5: '0%'}
----------------------------------------------------------
Time: 10
{0: '0%', 1: '78%', 3: '58%', 4: '0%', 5: '0%'}
----------------------------------------------------------
Time: 12
{0: '0%', 1: '81%', 3: '65%', 4: '17%', 5: '0%'}
----------------------------------------------------------
Time: 14
{0: '0%', 1: '84%', 3: '70%', 4: '28%', 5: '0%'}
----------------------------------------------------------
Time: 16
{0: '0%', 1: '86%', 3: '74%', 4: '37%', 5: '0%'}
----------------------------------------------------------
Time: 18
{0: '0%', 1: '77%', 3: '77%', 4: '44%', 5: '0%'}
----------------------------------------------------------
Time: 20
{0: '0%', 1: '70%', 3: '79%', 4: '50%', 5: '10%'}
----------------------------------------------------------
Time: 22
{0: '0%', 1: '63%', 3: '81%', 4: '54%', 5: '18%'}
----------------------------------------------------------
Time: 24
{0: '0%', 1: '58%', 3: '82%', 4: '58%', 5: '25%'}
----------------------------------------------------------
Time: 26
{0: '0%', 1: '53%', 3: '84%', 4: '61%', 5: '30%'}
----------------------------------------------------------
Time: 28
{0: '0%', 1: '50%', 3: '85%', 4: '64%', 5: '35%'}
----------------------------------------------------------
Time: 30
{0: '0%', 1: '46%', 3: '86%', 4: '66%', 5: '39%'}
----------------------------------------------------------
Time: 32
{0: '0%', 1: '43%', 3: '87%', 4: '68%', 5: '43%'}
----------------------------------------------------------
Time: 34
{0: '0%', 1: '41%', 3: '87%', 4: '70%', 5: '47%'}
----------------------------------------------------------
Time: 36
{0: '0%', 1: '39%', 3: '88%', 4: '72%', 5: '49%'}
----------------------------------------------------------
Time: 38
{0: '0%', 1: '36%', 3: '89%', 4: '73%', 5: '52%'}
----------------------------------------------------------
Time: 40
{0: '0%', 1: '35%', 3: '89%', 4: '74%', 5: '54%'}
----------------------------------------------------------
Time: 42
{0: '0%', 1: '33%', 3: '90%', 4: '76%', 5: '57%'}
----------------------------------------------------------
Time: 44
{0: '0%', 1: '31%', 3: '90%', 4: '77%', 5: '59%'}
----------------------------------------------------------
Time: 46
{0: '0%', 1: '30%', 3: '90%', 4: '78%', 5: '60%'}
----------------------------------------------------------
Time: 48
{0: '0%', 1: '29%', 3: '91%', 4: '79%', 5: '62%'}
----------------------------------------------------------
Time: 50
{0: '0%', 1: '28%', 3: '91%', 4: '79%', 5: '63%'}
----------------------------------------------------------
Time: 52
{0: '0%', 1: '27%', 3: '92%', 4: '80%', 5: '65%'}
----------------------------------------------------------
Time: 54
{0: '0%', 1: '26%', 3: '92%', 4: '81%', 5: '66%'}
----------------------------------------------------------
Time: 56
{0: '0%', 1: '25%', 3: '92%', 4: '82%', 5: '67%'}
----------------------------------------------------------
Time: 58
{0: '0%', 1: '24%', 3: '92%', 4: '82%', 5: '65%'}
----------------------------------------------------------
Time: 60
{0: '0%', 1: '27%', 3: '93%', 4: '83%', 5: '63%'}
----------------------------------------------------------
Time: 62
{0: '0%', 1: '29%', 3: '93%', 4: '83%', 5: '61%'}
----------------------------------------------------------
Time: 64
{0: '0%', 1: '31%', 3: '93%', 4: '84%', 5: '59%'}
----------------------------------------------------------
Time: 66
{0: '0%', 1: '33%', 3: '93%', 4: '84%', 5: '57%'}
----------------------------------------------------------
Time: 68
{0: '0%', 1: '35%', 3: '93%', 4: '85%', 5: '56%'}
----------------------------------------------------------
Time: 70
{0: '0%', 1: '37%', 3: '94%', 4: '85%', 5: '54%'}
----------------------------------------------------------
Time: 72
{0: '0%', 1: '39%', 3: '94%', 4: '86%', 5: '52%'}
----------------------------------------------------------
Time: 74
{0: '0%', 1: '40%', 3: '94%', 4: '86%', 5: '51%'}
----------------------------------------------------------
Time: 76
{0: '0%', 1: '42%', 3: '94%', 4: '86%', 5: '50%'}
----------------------------------------------------------
Time: 78
{0: '0%', 1: '43%', 3: '94%', 4: '87%', 5: '48%'}
----------------------------------------------------------
Time: 80
{0: '0%', 1: '45%', 3: '94%', 4: '87%', 5: '47%'}
----------------------------------------------------------
Time: 82
{0: '0%', 1: '46%', 3: '94%', 4: '87%', 5: '46%'}
----------------------------------------------------------
Time: 84
{0: '0%', 1: '47%', 3: '95%', 4: '88%', 5: '45%'}
----------------------------------------------------------
Time: 86
{0: '0%', 1: '49%', 3: '95%', 4: '88%', 5: '44%'}
----------------------------------------------------------
Time: 88
{0: '0%', 1: '50%', 3: '95%', 4: '88%', 5: '43%'}
----------------------------------------------------------
Time: 90
{0: '0%', 1: '50%', 3: '95%', 4: '88%', 5: '42%'}
----------------------------------------------------------
Time: 92
{0: '2%', 1: '49%', 3: '92%', 4: '88%', 5: '44%'}
----------------------------------------------------------
Time: 94
{0: '4%', 1: '48%', 3: '90%', 4: '88%', 5: '45%'}
----------------------------------------------------------
Time: 96
{0: '6%', 1: '47%', 3: '89%', 4: '89%', 5: '46%'}
----------------------------------------------------------
Time: 98
{0: '8%', 1: '46%', 3: '87%', 4: '89%', 5: '47%'}
----------------------------------------------------------
Time: 100
{0: '10%', 1: '45%', 3: '85%', 4: '89%', 5: '46%'}
----------------------------------------------------------
Time: 102
{0: '12%', 1: '44%', 3: '83%', 4: '89%', 5: '45%'}
----------------------------------------------------------
Time: 104
{0: '13%', 1: '44%', 3: '82%', 4: '89%', 5: '44%'}
----------------------------------------------------------
Time: 106
{0: '15%', 1: '43%', 3: '80%', 4: '90%', 5: '43%'}
----------------------------------------------------------
Time: 108
{0: '16%', 1: '42%', 3: '79%', 4: '90%', 5: '42%'}
----------------------------------------------------------
Time: 110
{0: '18%', 1: '41%', 3: '77%', 4: '90%', 5: '41%'}
----------------------------------------------------------
Time: 112
{0: '19%', 1: '40%', 3: '76%', 4: '90%', 5: '41%'}
----------------------------------------------------------
Time: 114
{0: '21%', 1: '40%', 3: '74%', 4: '90%', 5: '40%'}
----------------------------------------------------------
Time: 116
{0: '22%', 1: '39%', 3: '73%', 4: '90%', 5: '39%'}
----------------------------------------------------------
Time: 118
{0: '23%', 1: '38%', 3: '72%', 4: '91%', 5: '39%'}
----------------------------------------------------------
Time: 120
{0: '24%', 1: '38%', 3: '71%', 4: '91%', 5: '38%'}
----------------------------------------------------------
Time: 122
{0: '26%', 1: '37%', 3: '70%', 4: '91%', 5: '39%'}
----------------------------------------------------------
Time: 124
{0: '27%', 1: '36%', 3: '68%', 4: '91%', 5: '40%'}
----------------------------------------------------------
Time: 126
{0: '28%', 1: '36%', 3: '67%', 4: '91%', 5: '41%'}
----------------------------------------------------------
Time: 128
{0: '29%', 1: '35%', 3: '66%', 4: '91%', 5: '42%'}
----------------------------------------------------------
Time: 130
{0: '30%', 1: '35%', 3: '65%', 4: '91%', 5: '43%'}
----------------------------------------------------------
Time: 132
{0: '31%', 1: '34%', 3: '64%', 4: '91%', 5: '44%'}
----------------------------------------------------------
Time: 134
{0: '32%', 1: '34%', 3: '63%', 4: '91%', 5: '45%'}
----------------------------------------------------------
Time: 136
{0: '33%', 1: '33%', 3: '62%', 4: '91%', 5: '46%'}
----------------------------------------------------------
Time: 138
{0: '34%', 1: '33%', 3: '61%', 4: '91%', 5: '46%'}
----------------------------------------------------------
Time: 140
{0: '35%', 1: '32%', 3: '61%', 4: '92%', 5: '47%'}
----------------------------------------------------------
Time: 142
{0: '36%', 1: '32%', 3: '60%', 4: '92%', 5: '48%'}
----------------------------------------------------------
Time: 144
{0: '37%', 1: '31%', 3: '59%', 4: '92%', 5: '48%'}
----------------------------------------------------------
Time: 146
{0: '38%', 1: '31%', 3: '58%', 4: '92%', 5: '49%'}
----------------------------------------------------------
Time: 148
{0: '39%', 1: '30%', 3: '57%', 4: '92%', 5: '50%'}
----------------------------------------------------------
Time: 150
{0: '39%', 1: '30%', 3: '57%', 4: '92%', 5: '51%'}
----------------------------------------------------------
Time: 152
{0: '40%', 1: '31%', 3: '56%', 4: '90%', 5: '51%'}
----------------------------------------------------------
Time: 154
{0: '41%', 1: '32%', 3: '55%', 4: '89%', 5: '52%'}
----------------------------------------------------------
Time: 156
{0: '42%', 1: '33%', 3: '54%', 4: '88%', 5: '52%'}
----------------------------------------------------------
Time: 158
{0: '42%', 1: '34%', 3: '54%', 4: '87%', 5: '53%'}
----------------------------------------------------------
Time: 160
{0: '43%', 1: '33%', 3: '53%', 4: '87%', 5: '54%'}
----------------------------------------------------------
Time: 162
{0: '44%', 1: '33%', 3: '52%', 4: '87%', 5: '54%'}
----------------------------------------------------------
Time: 164
{0: '45%', 1: '32%', 3: '52%', 4: '87%', 5: '55%'}
----------------------------------------------------------
Time: 166
{0: '45%', 1: '32%', 3: '51%', 4: '87%', 5: '55%'}
----------------------------------------------------------
Time: 168
{0: '45%', 1: '32%', 3: '51%', 4: '87%', 5: '56%'}
----------------------------------------------------------
Time: 170
{0: '44%', 1: '31%', 3: '51%', 4: '88%', 5: '56%'}
----------------------------------------------------------
Time: 172
{0: '44%', 1: '31%', 3: '52%', 4: '88%', 5: '57%'}
----------------------------------------------------------
Time: 174
{0: '43%', 1: '30%', 3: '52%', 4: '88%', 5: '57%'}
----------------------------------------------------------
Time: 176
{0: '43%', 1: '30%', 3: '53%', 4: '88%', 5: '58%'}
----------------------------------------------------------
Time: 178
{0: '42%', 1: '30%', 3: '53%', 4: '87%', 5: '58%'}
----------------------------------------------------------
Time: 180
{0: '42%', 1: '31%', 3: '54%', 4: '86%', 5: '59%'}
----------------------------------------------------------
Time: 182
{0: '41%', 1: '32%', 3: '54%', 4: '85%', 5: '59%'}
----------------------------------------------------------
Time: 184
{0: '41%', 1: '32%', 3: '55%', 4: '84%', 5: '60%'}
----------------------------------------------------------
Time: 186
{0: '41%', 1: '33%', 3: '55%', 4: '83%', 5: '60%'}
----------------------------------------------------------
Time: 188
{0: '40%', 1: '34%', 3: '55%', 4: '82%', 5: '60%'}
----------------------------------------------------------
Time: 190
{0: '40%', 1: '35%', 3: '54%', 4: '82%', 5: '61%'}
----------------------------------------------------------
Time: 192
{0: '39%', 1: '35%', 3: '54%', 4: '82%', 5: '61%'}
----------------------------------------------------------
Time: 194
{0: '39%', 1: '36%', 3: '53%', 4: '82%', 5: '62%'}
----------------------------------------------------------
Time: 196
{0: '38%', 1: '36%', 3: '53%', 4: '82%', 5: '62%'}
----------------------------------------------------------
Time: 199
{0: '38%', 1: '36%', 3: '52%', 4: '82%', 5: '62%'}
----------------------------------------------------------
Time: 201
{0: '39%', 1: '36%', 3: '51%', 4: '81%', 5: '63%'}
----------------------------------------------------------
Time: 203
{0: '40%', 1: '35%', 3: '51%', 4: '81%', 5: '63%'}
----------------------------------------------------------
Time: 205
{0: '40%', 1: '35%', 3: '50%', 4: '80%', 5: '64%'}
----------------------------------------------------------
Time: 207
{0: '41%', 1: '35%', 3: '50%', 4: '79%', 5: '64%'}
----------------------------------------------------------
Time: 209
{0: '41%', 1: '34%', 3: '49%', 4: '78%', 5: '64%'}
----------------------------------------------------------
Time: 211
{0: '42%', 1: '34%', 3: '49%', 4: '78%', 5: '65%'}
----------------------------------------------------------
Time: 213
{0: '42%', 1: '34%', 3: '49%', 4: '77%', 5: '65%'}
----------------------------------------------------------
Time: 215
{0: '43%', 1: '33%', 3: '48%', 4: '76%', 5: '65%'}
----------------------------------------------------------
Time: 217
{0: '43%', 1: '33%', 3: '48%', 4: '75%', 5: '65%'}
----------------------------------------------------------
Time: 219
{0: '44%', 1: '33%', 3: '47%', 4: '75%', 5: '66%'}
----------------------------------------------------------
Time: 221
{0: '44%', 1: '32%', 3: '47%', 4: '74%', 5: '66%'}
----------------------------------------------------------
Time: 223
{0: '45%', 1: '32%', 3: '48%', 4: '73%', 5: '66%'}
----------------------------------------------------------
Time: 225
{0: '45%', 1: '32%', 3: '48%', 4: '73%', 5: '66%'}
----------------------------------------------------------
Time: 227
{0: '46%', 1: '31%', 3: '49%', 4: '72%', 5: '67%'}
----------------------------------------------------------
Time: 229
{0: '46%', 1: '31%', 3: '49%', 4: '71%', 5: '67%'}
----------------------------------------------------------
Time: 231
{0: '47%', 1: '31%', 3: '48%', 4: '71%', 5: '67%'}
----------------------------------------------------------
Time: 233
{0: '47%', 1: '31%', 3: '48%', 4: '70%', 5: '67%'}
----------------------------------------------------------
Time: 235
{0: '48%', 1: '30%', 3: '47%', 4: '70%', 5: '68%'}
----------------------------------------------------------
Time: 237
{0: '48%', 1: '30%', 3: '47%', 4: '69%', 5: '68%'}
----------------------------------------------------------
Time: 239
{0: '49%', 1: '30%', 3: '47%', 4: '68%', 5: '68%'}
----------------------------------------------------------
Time: 241
{0: '49%', 1: '30%', 3: '46%', 4: '68%', 5: '68%'}
----------------------------------------------------------
Time: 243
{0: '49%', 1: '29%', 3: '46%', 4: '67%', 5: '69%'}
----------------------------------------------------------
Time: 245
{0: '50%', 1: '29%', 3: '45%', 4: '67%', 5: '69%'}
----------------------------------------------------------
Time: 247
{0: '50%', 1: '29%', 3: '45%', 4: '66%', 5: '69%'}
----------------------------------------------------------
Time: 249
{0: '51%', 1: '29%', 3: '45%', 4: '66%', 5: '69%'}
----------------------------------------------------------
Time: 251
{0: '51%', 1: '29%', 3: '44%', 4: '65%', 5: '69%'}
----------------------------------------------------------
Time: 253
{0: '51%', 1: '29%', 3: '44%', 4: '65%', 5: '69%'}
----------------------------------------------------------
Time: 255
{0: '52%', 1: '30%', 3: '44%', 4: '64%', 5: '69%'}
----------------------------------------------------------
Time: 257
{0: '52%', 1: '30%', 3: '43%', 4: '64%', 5: '69%'}
----------------------------------------------------------
Time: 259
{0: '52%', 1: '31%', 3: '43%', 4: '63%', 5: '70%'}
----------------------------------------------------------
Time: 261
{0: '52%', 1: '31%', 3: '43%', 4: '63%', 5: '70%'}
----------------------------------------------------------
Time: 263
{0: '51%', 1: '32%', 3: '42%', 4: '64%', 5: '70%'}
----------------------------------------------------------
Time: 265
{0: '51%', 1: '32%', 3: '42%', 4: '64%', 5: '70%'}
----------------------------------------------------------
Time: 267
{0: '51%', 1: '33%', 3: '42%', 4: '64%', 5: '70%'}
----------------------------------------------------------
Time: 269
{0: '50%', 1: '32%', 3: '41%', 4: '64%', 5: '71%'}
----------------------------------------------------------
Time: 271
{0: '50%', 1: '32%', 3: '41%', 4: '65%', 5: '71%'}
----------------------------------------------------------
Time: 273
{0: '49%', 1: '32%', 3: '41%', 4: '65%', 5: '71%'}
----------------------------------------------------------
Time: 275
{0: '49%', 1: '32%', 3: '40%', 4: '65%', 5: '71%'}
----------------------------------------------------------
Time: 277
{0: '49%', 1: '31%', 3: '40%', 4: '65%', 5: '71%'}
----------------------------------------------------------
Time: 279
{0: '48%', 1: '31%', 3: '40%', 4: '66%', 5: '72%'}
----------------------------------------------------------
Time: 281
{0: '48%', 1: '31%', 3: '40%', 4: '66%', 5: '72%'}
----------------------------------------------------------
Time: 283
{0: '48%', 1: '31%', 3: '41%', 4: '66%', 5: '72%'}
----------------------------------------------------------
Time: 285
{0: '47%', 1: '31%', 3: '41%', 4: '66%', 5: '72%'}
----------------------------------------------------------
Time: 287
{0: '47%', 1: '30%', 3: '42%', 4: '67%', 5: '72%'}
----------------------------------------------------------
Time: 289
{0: '47%', 1: '30%', 3: '42%', 4: '67%', 5: '72%'}
----------------------------------------------------------
Time: 291
{0: '47%', 1: '30%', 3: '42%', 4: '67%', 5: '72%'}
----------------------------------------------------------
Time: 293
{0: '47%', 1: '30%', 3: '43%', 4: '67%', 5: '71%'}
----------------------------------------------------------
Time: 295
{0: '47%', 1: '30%', 3: '43%', 4: '67%', 5: '71%'}
----------------------------------------------------------
Time: 297
{0: '48%', 1: '29%', 3: '43%', 4: '68%', 5: '70%'}
----------------------------------------------------------
Time: 299
{0: '48%', 1: '29%', 3: '44%', 4: '68%', 5: '70%'}
----------------------------------------------------------
