Time: 0
[[0, 0, 0, 0, 0, 0], [0, 0, 0, 0, 0, 0], [0, 0, 0, 0, 0, 0], [0, 0, 0, 0, 0, 0], [0, 0, 0, 0, 0, 0], [0, 0, 0, 0, 0, 0]]
----------------------------------------------------------
Time: 2
[[0, 0, 0, 0, 0, 0], [0, 0, 0, 0, 0, 0], [0, 0, 0, 0, 0, 0], [0, 0, 0, 0, 0, 0], [0, 0, 0, 0, 0, 0], [0, 0, 0, 0, 0, 0]]
----------------------------------------------------------
Time: 4
[[0, 2, 0, 0, 0, 0], [2, 0, 0, 0, 0, 0], [0, 0, 0, 0, 0, 0], [0, 0, 0, 0, 0, 0], [0, 0, 0, 0, 0, 0], [0, 0, 0, 0, 0, 0]]
----------------------------------------------------------
Time: 6
[[0, 2, 0, 0, 0, 0], [2, 0, 2, 2, 0, 0], [0, 2, 0, 0, 0, 0], [0, 2, 0, 0, 0, 0], [0, 0, 0, 0, 0, 0], [0, 0, 0, 0, 0, 0]]
----------------------------------------------------------
Time: 8
[[0, 2, 0, 0, 0, 0], [2, 0, 2, 2, 0, 0], [0, 2, 0, 0, 0, 0], [0, 2, 0, 0, 0, 0], [0, 0, 0, 0, 0, 0], [0, 0, 0, 0, 0, 0]]
----------------------------------------------------------
Time: 10
[[0, 2, 0, 0, 0, 0], [2, 0, 2, 2, 0, 0], [0, 2, 0, 0, 0, 0], [0, 2, 0, 0, 0, 0], [0, 0, 0, 0, 0, 0], [0, 0, 0, 0, 0, 0]]
----------------------------------------------------------
Time: 12
[[0, 2, 0, 0, 2, 0], [2, 0, 2, 2, 0, 0], [0, 2, 0, 0, 0, 0], [0, 2, 0, 0, 2, 0], [2, 0, 0, 2, 0, 0], [0, 0, 0, 0, 0, 0]]
----------------------------------------------------------
Time: 14
[[0, 2, 0, 0, 2, 0], [2, 0, 2, 2, 0, 0], [0, 2, 0, 0, 2, 0], [0, 2, 0, 0, 2, 0], [2, 0, 2, 2, 0, 0], [0, 0, 0, 0, 0, 0]]
----------------------------------------------------------
Time: 16
[[0, 2, 0, 0, 2, 0], [2, 0, 2, 2, 0, 0], [0, 2, 0, 0, 2, 0], [0, 2, 0, 0, 2, 0], [2, 0, 2, 2, 0, 0], [0, 0, 0, 0, 0, 0]]
----------------------------------------------------------
Time: 18
[[0, 0, 0, 0, 2, 1], [0, 0, 2, 2, 0, 0], [0, 2, 0, 0, 2, 2], [0, 2, 0, 0, 2, 2], [2, 0, 2, 2, 0, 0], [0, 0, 2, 2, 0, 0]]
----------------------------------------------------------
Time: 20
[[0, 0, 2, 0, 2, 1], [0, 0, 0, 2, 0, 0], [2, 0, 0, 2, 2, 2], [0, 2, 2, 0, 2, 2], [2, 0, 2, 2, 0, 0], [0, 0, 2, 2, 0, 0]]
----------------------------------------------------------
Time: 22
[[0, 0, 2, 0, 2, 1], [0, 0, 0, 2, 0, 0], [2, 0, 0, 2, 2, 2], [0, 2, 2, 0, 2, 2], [2, 0, 2, 2, 0, 0], [0, 0, 2, 2, 0, 0]]
----------------------------------------------------------
Time: 24
[[0, 0, 2, 0, 2, 1], [0, 0, 0, 2, 0, 0], [2, 0, 0, 2, 2, 2], [0, 2, 2, 0, 2, 2], [2, 0, 2, 2, 0, 0], [0, 0, 2, 2, 0, 0]]
----------------------------------------------------------
Time: 26
[[0, 0, 2, 0, 2, 1], [0, 0, 0, 2, 0, 0], [2, 0, 0, 2, 2, 2], [0, 2, 2, 0, 2, 2], [2, 0, 2, 2, 0, 0], [0, 0, 2, 2, 0, 0]]
----------------------------------------------------------
Time: 28
[[0, 0, 2, 0, 2, 1], [0, 0, 0, 2, 0, 0], [2, 0, 0, 2, 2, 2], [0, 2, 2, 0, 2, 2], [2, 0, 2, 2, 0, 0], [0, 0, 2, 2, 0, 0]]
----------------------------------------------------------
Time: 30
[[0, 0, 2, 0, 2, 1], [0, 0, 0, 2, 0, 0], [2, 0, 0, 2, 2, 2], [0, 2, 2, 0, 2, 2], [2, 0, 2, 2, 0, 0], [0, 0, 2, 2, 0, 0]]
----------------------------------------------------------
Time: 32
[[0, 0, 2, 0, 2, 1], [0, 0, 0, 2, 0, 0], [2, 0, 0, 2, 2, 2], [0, 2, 2, 0, 2, 2], [2, 0, 2, 2, 0, 0], [0, 0, 2, 2, 0, 0]]
----------------------------------------------------------
Time: 34
[[0, 0, 2, 0, 2, 1], [0, 0, 0, 2, 0, 0], [2, 0, 0, 2, 2, 2], [0, 2, 2, 0, 2, 2], [2, 0, 2, 2, 0, 0], [0, 0, 2, 2, 0, 0]]
----------------------------------------------------------
Time: 36
[[0, 0, 2, 0, 2, 1], [0, 0, 0, 2, 0, 0], [2, 0, 0, 2, 2, 2], [0, 2, 2, 0, 2, 2], [2, 0, 2, 2, 0, 0], [0, 0, 2, 2, 0, 0]]
----------------------------------------------------------
Time: 38
[[0, 0, 2, 0, 2, 1], [0, 0, 0, 2, 0, 0], [2, 0, 0, 2, 2, 2], [0, 2, 2, 0, 2, 2], [2, 0, 2, 2, 0, 0], [0, 0, 2, 2, 0, 0]]
----------------------------------------------------------
Time: 40
[[0, 0, 2, 0, 2, 1], [0, 0, 0, 2, 0, 0], [2, 0, 0, 2, 2, 2], [0, 2, 2, 0, 2, 2], [2, 0, 2, 2, 0, 0], [0, 0, 2, 2, 0, 0]]
----------------------------------------------------------
Time: 42
[[0, 0, 2, 0, 2, 1], [0, 0, 0, 2, 0, 0], [2, 0, 0, 2, 2, 2], [0, 2, 2, 0, 2, 2], [2, 0, 2, 2, 0, 0], [0, 0, 2, 2, 0, 0]]
----------------------------------------------------------
Time: 44
[[0, 0, 2, 0, 2, 1], [0, 0, 0, 2, 0, 0], [2, 0, 0, 2, 2, 2], [0, 2, 2, 0, 2, 2], [2, 0, 2, 2, 0, 0], [0, 0, 2, 2, 0, 0]]
----------------------------------------------------------
Time: 46
[[0, 0, 2, 0, 2, 1], [0, 0, 0, 2, 0, 0], [2, 0, 0, 2, 2, 2], [0, 2, 2, 0, 2, 2], [2, 0, 2, 2, 0, 0], [0, 0, 2, 2, 0, 0]]
----------------------------------------------------------
Time: 48
[[0, 0, 2, 0, 2, 1], [0, 0, 0, 2, 0, 0], [2, 0, 0, 2, 2, 2], [0, 2, 2, 0, 2, 2], [2, 0, 2, 2, 0, 0], [0, 0, 2, 2, 0, 0]]
----------------------------------------------------------
Time: 50
[[0, 0, 2, 0, 2, 1], [0, 0, 0, 2, 0, 0], [2, 0, 0, 2, 2, 2], [0, 2, 2, 0, 2, 2], [2, 0, 2, 2, 0, 0], [0, 0, 2, 2, 0, 0]]
----------------------------------------------------------
Time: 52
[[0, 0, 2, 0, 2, 1], [0, 0, 0, 2, 0, 0], [2, 0, 0, 2, 2, 2], [0, 2, 2, 0, 2, 2], [2, 0, 2, 2, 0, 0], [0, 0, 2, 2, 0, 0]]
----------------------------------------------------------
Time: 54
[[0, 0, 2, 0, 2, 1], [0, 0, 0, 2, 0, 0], [2, 0, 0, 2, 2, 2], [0, 2, 2, 0, 2, 2], [2, 0, 2, 2, 0, 0], [0, 0, 2, 2, 0, 0]]
----------------------------------------------------------
Time: 56
[[0, 0, 2, 0, 2, 1], [0, 0, 0, 2, 0, 0], [2, 0, 0, 2, 2, 2], [0, 2, 2, 0, 2, 2], [2, 0, 2, 2, 0, 0], [0, 0, 2, 2, 0, 0]]
----------------------------------------------------------
Time: 58
[[0, 0, 2, 0, 2, 1], [0, 0, 0, 2, 0, 0], [2, 0, 0, 2, 2, 2], [0, 2, 2, 0, 2, 2], [2, 0, 2, 2, 0, 0], [0, 0, 2, 2, 0, 0]]
----------------------------------------------------------
Time: 60
[[0, 0, 2, 0, 2, 1], [0, 0, 0, 2, 0, 0], [2, 0, 0, 2, 2, 2], [0, 2, 2, 0, 2, 2], [2, 0, 2, 2, 0, 0], [0, 0, 2, 2, 0, 0]]
----------------------------------------------------------
Time: 62
[[0, 0, 2, 0, 2, 1], [0, 0, 0, 2, 0, 0], [2, 0, 0, 2, 2, 2], [0, 2, 2, 0, 2, 2], [2, 0, 2, 2, 0, 0], [0, 0, 2, 2, 0, 0]]
----------------------------------------------------------
Time: 64
[[0, 0, 2, 0, 2, 1], [0, 0, 0, 2, 0, 0], [2, 0, 0, 2, 2, 2], [0, 2, 2, 0, 2, 2], [2, 0, 2, 2, 0, 0], [0, 0, 2, 2, 0, 0]]
----------------------------------------------------------
Time: 66
[[0, 0, 2, 0, 2, 1], [0, 0, 0, 2, 0, 0], [2, 0, 0, 2, 2, 2], [0, 2, 2, 0, 2, 2], [2, 0, 2, 2, 0, 0], [0, 0, 2, 2, 0, 0]]
----------------------------------------------------------
Time: 68
[[0, 0, 2, 0, 2, 1], [0, 0, 0, 2, 0, 0], [2, 0, 0, 2, 2, 2], [0, 2, 2, 0, 2, 2], [2, 0, 2, 2, 0, 0], [0, 0, 2, 2, 0, 0]]
----------------------------------------------------------
Time: 70
[[0, 0, 2, 0, 2, 1], [0, 0, 0, 2, 0, 0], [2, 0, 0, 2, 2, 2], [0, 2, 2, 0, 2, 2], [2, 0, 2, 2, 0, 0], [0, 0, 2, 2, 0, 0]]
----------------------------------------------------------
Time: 72
[[0, 0, 2, 0, 2, 1], [0, 0, 0, 2, 0, 0], [2, 0, 0, 2, 2, 2], [0, 2, 2, 0, 2, 2], [2, 0, 2, 2, 0, 0], [0, 0, 2, 2, 0, 0]]
----------------------------------------------------------
Time: 74
[[0, 0, 2, 0, 2, 1], [0, 0, 0, 2, 0, 0], [2, 0, 0, 2, 2, 2], [0, 2, 2, 0, 2, 2], [2, 0, 2, 2, 0, 0], [0, 0, 2, 2, 0, 0]]
----------------------------------------------------------
Time: 76
[[0, 0, 2, 0, 2, 1], [0, 0, 0, 2, 0, 0], [2, 0, 0, 2, 2, 2], [0, 2, 2, 0, 2, 2], [2, 0, 2, 2, 0, 0], [0, 0, 2, 2, 0, 0]]
----------------------------------------------------------
Time: 78
[[0, 0, 2, 0, 2, 1], [0, 0, 0, 2, 0, 0], [2, 0, 0, 2, 2, 2], [0, 2, 2, 0, 2, 2], [2, 0, 2, 2, 0, 0], [0, 0, 2, 2, 0, 0]]
----------------------------------------------------------
Time: 80
[[0, 2, 2, 1, 1, 2], [2, 0, 0, 2, 2, 0], [2, 0, 0, 0, 2, 2], [0, 2, 0, 0, 2, 0], [0, 2, 2, 2, 0, 0], [2, 0, 2, 0, 0, 0]]
----------------------------------------------------------
Time: 82
[[0, 2, 2, 1, 1, 2], [2, 0, 0, 2, 2, 0], [2, 0, 0, 0, 2, 2], [0, 2, 0, 0, 2, 0], [0, 2, 2, 2, 0, 0], [2, 0, 2, 0, 0, 0]]
----------------------------------------------------------
Time: 84
[[0, 2, 2, 1, 1, 2], [2, 0, 0, 2, 2, 0], [2, 0, 0, 0, 2, 2], [0, 2, 0, 0, 2, 0], [0, 2, 2, 2, 0, 0], [2, 0, 2, 0, 0, 0]]
----------------------------------------------------------
Time: 86
[[0, 2, 2, 1, 1, 2], [2, 0, 0, 2, 2, 0], [2, 0, 0, 0, 2, 2], [0, 2, 0, 0, 2, 0], [0, 2, 2, 2, 0, 0], [2, 0, 2, 0, 0, 0]]
----------------------------------------------------------
Time: 88
[[0, 2, 2, 1, 1, 2], [2, 0, 0, 2, 2, 0], [2, 0, 0, 0, 2, 2], [0, 2, 0, 0, 2, 0], [0, 2, 2, 2, 0, 0], [2, 0, 2, 0, 0, 0]]
----------------------------------------------------------
Time: 90
[[0, 2, 0, 2, 2, 0], [2, 0, 0, 2, 2, 0], [0, 0, 0, 0, 0, 2], [2, 2, 0, 0, 2, 0], [2, 2, 0, 2, 0, 0], [0, 0, 2, 0, 0, 0]]
----------------------------------------------------------
Time: 92
[[0, 2, 0, 2, 2, 0], [2, 0, 0, 2, 2, 0], [0, 0, 0, 0, 2, 2], [2, 2, 0, 0, 2, 0], [2, 2, 2, 2, 0, 0], [0, 0, 2, 0, 0, 0]]
----------------------------------------------------------
Time: 94
[[0, 2, 2, 2, 2, 0], [2, 0, 0, 2, 2, 0], [2, 0, 0, 0, 2, 2], [2, 2, 0, 0, 2, 0], [2, 2, 2, 2, 0, 0], [0, 0, 2, 0, 0, 0]]
----------------------------------------------------------
Time: 96
[[0, 0, 2, 2, 2, 0], [0, 0, 0, 2, 2, 0], [2, 0, 0, 0, 2, 2], [2, 2, 0, 0, 2, 0], [2, 2, 2, 2, 0, 0], [0, 0, 2, 0, 0, 0]]
----------------------------------------------------------
Time: 98
[[0, 0, 2, 2, 2, 0], [0, 0, 0, 0, 0, 0], [2, 0, 0, 0, 2, 2], [2, 0, 0, 0, 2, 0], [2, 0, 2, 2, 0, 0], [0, 0, 2, 0, 0, 0]]
----------------------------------------------------------
Time: 100
[[0, 0, 2, 2, 2, 0], [0, 0, 0, 0, 0, 0], [2, 0, 0, 0, 2, 2], [2, 0, 0, 0, 2, 2], [2, 0, 2, 2, 0, 0], [0, 0, 2, 2, 0, 0]]
----------------------------------------------------------
Time: 102
[[0, 0, 2, 2, 2, 0], [0, 0, 0, 0, 0, 0], [2, 0, 0, 0, 2, 2], [2, 0, 0, 0, 2, 2], [2, 0, 2, 2, 0, 0], [0, 0, 2, 2, 0, 0]]
----------------------------------------------------------
Time: 104
[[0, 0, 2, 2, 2, 0], [0, 0, 0, 0, 0, 0], [2, 0, 0, 0, 2, 2], [2, 0, 0, 0, 2, 2], [2, 0, 2, 2, 0, 0], [0, 0, 2, 2, 0, 0]]
----------------------------------------------------------
Time: 106
[[0, 0, 0, 2, 2, 0], [0, 0, 0, 0, 0, 0], [0, 0, 0, 0, 2, 2], [2, 0, 0, 0, 2, 2], [2, 0, 2, 2, 0, 0], [0, 0, 2, 2, 0, 0]]
----------------------------------------------------------
Time: 108
[[0, 0, 0, 2, 2, 0], [0, 0, 0, 0, 0, 0], [0, 0, 0, 0, 0, 2], [2, 0, 0, 0, 2, 2], [2, 0, 0, 2, 0, 2], [0, 0, 2, 2, 2, 0]]
----------------------------------------------------------
Time: 110
[[0, 2, 0, 2, 2, 0], [2, 0, 0, 2, 2, 0], [0, 0, 0, 0, 0, 2], [2, 2, 0, 0, 2, 2], [2, 2, 0, 2, 0, 2], [0, 0, 2, 2, 2, 0]]
----------------------------------------------------------
Time: 112
[[0, 2, 0, 2, 2, 0], [2, 0, 0, 2, 0, 0], [0, 0, 0, 0, 0, 2], [2, 2, 0, 0, 2, 2], [2, 0, 0, 2, 0, 2], [0, 0, 2, 2, 2, 0]]
----------------------------------------------------------
Time: 114
[[0, 2, 0, 2, 2, 0], [2, 0, 0, 2, 2, 0], [0, 0, 0, 0, 0, 2], [2, 2, 0, 0, 2, 2], [2, 2, 0, 2, 0, 2], [0, 0, 2, 2, 2, 0]]
----------------------------------------------------------
Time: 116
[[0, 2, 0, 2, 2, 0], [2, 0, 0, 2, 2, 0], [0, 0, 0, 0, 0, 2], [2, 2, 0, 0, 2, 2], [2, 2, 0, 2, 0, 2], [0, 0, 2, 2, 2, 0]]
----------------------------------------------------------
Time: 118
[[0, 2, 0, 0, 2, 1], [2, 0, 0, 2, 2, 0], [0, 0, 0, 0, 0, 0], [0, 2, 0, 0, 0, 0], [2, 2, 0, 0, 0, 2], [0, 0, 0, 0, 2, 0]]
----------------------------------------------------------
Time: 120
[[0, 2, 2, 0, 2, 1], [2, 0, 0, 2, 2, 0], [2, 0, 0, 0, 2, 0], [0, 2, 0, 0, 0, 0], [2, 2, 2, 0, 0, 2], [0, 0, 0, 0, 2, 0]]
----------------------------------------------------------
Time: 123
[[0, 2, 2, 0, 2, 2], [2, 0, 0, 2, 2, 0], [2, 0, 0, 0, 2, 2], [0, 2, 0, 0, 0, 0], [2, 2, 2, 0, 0, 2], [2, 0, 2, 0, 2, 0]]
----------------------------------------------------------
Time: 124
[[0, 2, 2, 0, 2, 0], [2, 0, 0, 2, 2, 0], [2, 0, 0, 0, 2, 2], [0, 2, 0, 0, 0, 0], [2, 2, 2, 0, 0, 2], [0, 0, 2, 0, 2, 0]]
----------------------------------------------------------
Time: 126
[[0, 0, 2, 0, 2, 2], [0, 0, 0, 2, 0, 0], [2, 0, 0, 0, 0, 2], [0, 2, 0, 0, 0, 0], [2, 0, 0, 0, 0, 2], [2, 0, 2, 0, 2, 0]]
----------------------------------------------------------
Time: 128
[[0, 0, 2, 0, 2, 2], [0, 0, 0, 2, 0, 0], [2, 0, 0, 0, 2, 2], [0, 2, 0, 0, 0, 0], [2, 0, 2, 0, 0, 2], [2, 0, 2, 0, 2, 0]]
----------------------------------------------------------
Time: 130
[[0, 0, 2, 1, 2, 2], [0, 0, 0, 2, 0, 0], [2, 0, 0, 0, 2, 2], [0, 2, 0, 0, 0, 0], [2, 0, 2, 0, 0, 2], [2, 0, 2, 0, 2, 0]]
----------------------------------------------------------
Time: 132
[[0, 0, 2, 0, 2, 2], [0, 0, 0, 2, 0, 0], [2, 0, 0, 0, 2, 2], [0, 2, 0, 0, 0, 0], [2, 0, 2, 0, 0, 2], [2, 0, 2, 0, 2, 0]]
----------------------------------------------------------
Time: 134
[[0, 0, 2, 0, 2, 2], [0, 0, 0, 2, 0, 0], [2, 0, 0, 0, 2, 2], [0, 2, 0, 0, 0, 0], [2, 0, 2, 0, 0, 2], [2, 0, 2, 0, 2, 0]]
----------------------------------------------------------
Time: 136
[[0, 0, 0, 0, 2, 2], [0, 0, 0, 2, 0, 0], [0, 0, 0, 0, 2, 0], [0, 2, 0, 0, 0, 0], [2, 0, 2, 0, 0, 2], [2, 0, 0, 0, 2, 0]]
----------------------------------------------------------
Time: 139
[[0, 0, 0, 2, 2, 2], [0, 0, 0, 2, 0, 0], [0, 0, 0, 0, 0, 0], [2, 2, 0, 0, 0, 2], [2, 0, 0, 0, 0, 2], [2, 0, 0, 2, 2, 0]]
----------------------------------------------------------
Time: 140
[[0, 0, 0, 2, 2, 2], [0, 0, 0, 0, 2, 0], [0, 0, 0, 0, 0, 0], [2, 0, 0, 0, 0, 2], [2, 2, 0, 0, 0, 2], [2, 0, 0, 2, 2, 0]]
----------------------------------------------------------
Time: 142
[[0, 0, 0, 2, 2, 2], [0, 0, 0, 0, 2, 0], [0, 0, 0, 0, 0, 0], [2, 0, 0, 0, 0, 2], [2, 2, 0, 0, 0, 2], [2, 0, 0, 2, 2, 0]]
----------------------------------------------------------
Time: 144
[[0, 0, 0, 2, 2, 2], [0, 0, 0, 0, 2, 0], [0, 0, 0, 0, 0, 0], [2, 0, 0, 0, 0, 2], [2, 2, 0, 0, 0, 2], [2, 0, 0, 2, 2, 0]]
----------------------------------------------------------
Time: 146
[[0, 0, 0, 0, 2, 2], [0, 0, 0, 0, 2, 0], [0, 0, 0, 0, 0, 0], [0, 0, 0, 0, 0, 0], [2, 2, 0, 0, 0, 2], [2, 0, 0, 0, 2, 0]]
----------------------------------------------------------
Time: 148
[[0, 2, 0, 0, 2, 2], [2, 0, 0, 0, 2, 0], [0, 0, 0, 0, 0, 0], [0, 0, 0, 0, 0, 0], [2, 2, 0, 0, 0, 2], [2, 0, 0, 0, 2, 0]]
----------------------------------------------------------
Time: 151
[[0, 2, 0, 0, 2, 2], [2, 0, 0, 0, 2, 0], [0, 0, 0, 0, 0, 2], [0, 0, 0, 0, 0, 0], [2, 2, 0, 0, 0, 2], [2, 0, 2, 0, 2, 0]]
----------------------------------------------------------
Time: 152
[[0, 2, 2, 0, 2, 2], [2, 0, 2, 0, 2, 0], [2, 2, 0, 0, 0, 2], [0, 0, 0, 0, 0, 0], [2, 2, 0, 0, 0, 2], [2, 0, 2, 0, 2, 0]]
----------------------------------------------------------
Time: 154
[[0, 2, 0, 0, 2, 2], [2, 0, 2, 0, 2, 0], [0, 2, 0, 0, 0, 2], [0, 0, 0, 0, 0, 0], [2, 2, 0, 0, 0, 2], [2, 0, 2, 0, 2, 0]]
----------------------------------------------------------
Time: 157
[[0, 0, 2, 0, 2, 2], [0, 0, 2, 0, 0, 0], [2, 2, 0, 0, 0, 2], [0, 0, 0, 0, 0, 0], [2, 0, 0, 0, 0, 2], [2, 0, 2, 0, 2, 0]]
----------------------------------------------------------
Time: 159
[[0, 0, 2, 0, 2, 2], [0, 0, 2, 0, 0, 0], [2, 2, 0, 0, 2, 2], [0, 0, 0, 0, 0, 0], [2, 0, 2, 0, 0, 2], [2, 0, 2, 0, 2, 0]]
----------------------------------------------------------
Time: 160
[[0, 0, 2, 0, 2, 2], [0, 0, 2, 0, 0, 0], [2, 2, 0, 0, 2, 2], [0, 0, 0, 0, 0, 0], [2, 0, 2, 0, 0, 2], [2, 0, 2, 0, 2, 0]]
----------------------------------------------------------
Time: 162
[[0, 0, 2, 0, 2, 2], [0, 0, 2, 0, 0, 0], [2, 2, 0, 0, 2, 2], [0, 0, 0, 0, 0, 0], [2, 0, 2, 0, 0, 2], [2, 0, 2, 0, 2, 0]]
----------------------------------------------------------
Time: 164
[[0, 0, 2, 0, 2, 2], [0, 0, 2, 0, 0, 0], [2, 2, 0, 0, 2, 2], [0, 0, 0, 0, 0, 0], [2, 0, 2, 0, 0, 2], [2, 0, 2, 0, 2, 0]]
----------------------------------------------------------
Time: 166
[[0, 0, 2, 0, 2, 2], [0, 0, 2, 0, 0, 0], [2, 2, 0, 0, 2, 2], [0, 0, 0, 0, 0, 0], [2, 0, 2, 0, 0, 2], [2, 0, 2, 0, 2, 0]]
----------------------------------------------------------
Time: 168
[[0, 0, 2, 0, 2, 2], [0, 0, 2, 0, 0, 0], [2, 2, 0, 0, 2, 2], [0, 0, 0, 0, 0, 0], [2, 0, 2, 0, 0, 2], [2, 0, 2, 0, 2, 0]]
----------------------------------------------------------
Time: 170
[[0, 0, 2, 0, 2, 2], [0, 0, 2, 0, 0, 0], [2, 2, 0, 0, 2, 2], [0, 0, 0, 0, 0, 0], [2, 0, 2, 0, 0, 2], [2, 0, 2, 0, 2, 0]]
----------------------------------------------------------
Time: 173
[[0, 0, 2, 0, 2, 2], [0, 0, 2, 0, 0, 0], [2, 2, 0, 0, 2, 2], [0, 0, 0, 0, 0, 0], [2, 0, 2, 0, 0, 2], [2, 0, 2, 0, 2, 0]]
----------------------------------------------------------
Time: 175
[[0, 0, 2, 0, 2, 2], [0, 0, 2, 0, 0, 0], [2, 2, 0, 0, 2, 2], [0, 0, 0, 0, 0, 0], [2, 0, 2, 0, 0, 2], [2, 0, 2, 0, 2, 0]]
----------------------------------------------------------
Time: 177
[[0, 0, 2, 0, 2, 2], [0, 0, 2, 0, 0, 0], [2, 2, 0, 0, 2, 2], [0, 0, 0, 0, 0, 0], [2, 0, 2, 0, 0, 2], [2, 0, 2, 0, 2, 0]]
----------------------------------------------------------
Time: 179
[[0, 0, 2, 0, 2, 2], [0, 0, 2, 0, 0, 0], [2, 2, 0, 0, 2, 2], [0, 0, 0, 0, 0, 0], [2, 0, 2, 0, 0, 2], [2, 0, 2, 0, 2, 0]]
----------------------------------------------------------
Time: 180
[[0, 1, 1, 2, 2, 0], [0, 0, 2, 0, 0, 2], [0, 2, 0, 2, 0, 2], [2, 0, 2, 0, 0, 0], [2, 0, 0, 0, 0, 2], [0, 2, 2, 0, 2, 0]]
----------------------------------------------------------
Time: 183
[[0, 2, 1, 2, 2, 0], [2, 0, 2, 0, 0, 2], [0, 2, 0, 2, 0, 2], [2, 0, 2, 0, 0, 0], [2, 0, 0, 0, 0, 2], [0, 2, 2, 0, 2, 0]]
----------------------------------------------------------
Time: 185
[[0, 2, 1, 2, 2, 0], [2, 0, 2, 0, 0, 2], [0, 2, 0, 2, 0, 2], [2, 0, 2, 0, 0, 0], [2, 0, 0, 0, 0, 2], [0, 2, 2, 0, 2, 0]]
----------------------------------------------------------
Time: 187
[[0, 2, 1, 2, 2, 0], [2, 0, 2, 0, 0, 2], [0, 2, 0, 2, 0, 2], [2, 0, 2, 0, 0, 0], [2, 0, 0, 0, 0, 2], [0, 2, 2, 0, 2, 0]]
----------------------------------------------------------
Time: 189
[[0, 2, 0, 0, 0, 0], [2, 0, 2, 0, 0, 2], [0, 2, 0, 2, 0, 2], [0, 0, 2, 0, 0, 0], [0, 0, 0, 0, 0, 0], [0, 2, 2, 0, 0, 0]]
----------------------------------------------------------
Time: 191
[[0, 2, 0, 0, 1, 2], [2, 0, 2, 0, 2, 2], [0, 2, 0, 2, 2, 2], [0, 0, 2, 0, 0, 0], [0, 2, 2, 0, 0, 0], [2, 2, 2, 0, 0, 0]]
----------------------------------------------------------
Time: 193
[[0, 2, 0, 0, 2, 2], [2, 0, 2, 0, 2, 2], [0, 2, 0, 2, 0, 2], [0, 0, 2, 0, 0, 0], [2, 2, 0, 0, 0, 2], [2, 2, 2, 0, 2, 0]]
----------------------------------------------------------
Time: 195
[[0, 2, 0, 0, 2, 2], [2, 0, 2, 0, 2, 2], [0, 2, 0, 2, 0, 2], [0, 0, 2, 0, 0, 0], [2, 2, 0, 0, 0, 2], [2, 2, 2, 0, 2, 0]]
----------------------------------------------------------
Time: 197
[[0, 0, 1, 0, 2, 2], [0, 0, 0, 0, 2, 2], [0, 0, 0, 0, 2, 2], [0, 0, 0, 0, 0, 0], [2, 2, 2, 0, 0, 0], [2, 2, 2, 0, 0, 0]]
----------------------------------------------------------
Time: 199
[[0, 0, 1, 0, 2, 2], [0, 0, 0, 0, 0, 0], [0, 0, 0, 0, 0, 2], [0, 0, 0, 0, 0, 0], [2, 0, 0, 0, 0, 0], [2, 0, 2, 0, 0, 0]]
----------------------------------------------------------
Time: 201
[[0, 0, 2, 0, 2, 2], [0, 0, 0, 0, 0, 0], [2, 0, 0, 2, 0, 2], [0, 0, 2, 0, 0, 2], [2, 0, 0, 0, 0, 2], [2, 0, 2, 2, 2, 0]]
----------------------------------------------------------
Time: 203
[[0, 0, 2, 0, 2, 2], [0, 0, 0, 0, 0, 0], [2, 0, 0, 2, 0, 2], [0, 0, 2, 0, 0, 2], [2, 0, 0, 0, 0, 2], [2, 0, 2, 2, 2, 0]]
----------------------------------------------------------
Time: 205
[[0, 0, 2, 0, 2, 2], [0, 0, 0, 0, 0, 0], [2, 0, 0, 2, 0, 2], [0, 0, 2, 0, 0, 2], [2, 0, 0, 0, 0, 2], [2, 0, 2, 2, 2, 0]]
----------------------------------------------------------
Time: 207
[[0, 0, 2, 0, 2, 2], [0, 0, 0, 0, 0, 0], [2, 0, 0, 2, 0, 2], [0, 0, 2, 0, 0, 2], [2, 0, 0, 0, 0, 2], [2, 0, 2, 2, 2, 0]]
----------------------------------------------------------
Time: 209
[[0, 0, 0, 2, 2, 2], [0, 0, 0, 0, 0, 0], [0, 0, 0, 0, 0, 0], [2, 0, 0, 0, 0, 2], [2, 0, 0, 0, 0, 0], [2, 0, 0, 2, 0, 0]]
----------------------------------------------------------
Time: 211
[[0, 0, 0, 2, 2, 2], [0, 0, 2, 0, 0, 2], [0, 2, 0, 0, 0, 0], [2, 0, 0, 0, 0, 2], [2, 0, 0, 0, 0, 0], [2, 2, 0, 2, 0, 0]]
----------------------------------------------------------
Time: 213
[[0, 0, 0, 2, 2, 2], [0, 0, 0, 0, 2, 2], [0, 0, 0, 0, 0, 0], [2, 0, 0, 0, 0, 2], [2, 2, 0, 0, 0, 0], [2, 2, 0, 2, 0, 0]]
----------------------------------------------------------
Time: 215
[[0, 0, 0, 2, 2, 2], [0, 0, 0, 0, 2, 2], [0, 0, 0, 0, 0, 0], [2, 0, 0, 0, 0, 2], [2, 2, 0, 0, 0, 0], [2, 2, 0, 2, 0, 0]]
----------------------------------------------------------
Time: 217
[[0, 0, 0, 0, 2, 2], [0, 0, 0, 0, 2, 2], [0, 0, 0, 0, 0, 0], [0, 0, 0, 0, 0, 2], [2, 2, 0, 0, 0, 2], [2, 2, 0, 2, 2, 0]]
----------------------------------------------------------
Time: 219
[[0, 2, 0, 0, 2, 2], [2, 0, 0, 0, 2, 2], [0, 0, 0, 0, 0, 0], [0, 0, 0, 0, 0, 2], [2, 2, 0, 0, 0, 2], [2, 2, 0, 2, 2, 0]]
----------------------------------------------------------
Time: 221
[[0, 2, 0, 0, 2, 2], [2, 0, 0, 0, 2, 2], [0, 0, 0, 2, 0, 2], [0, 0, 2, 0, 0, 0], [2, 2, 0, 0, 0, 2], [2, 2, 2, 0, 2, 0]]
----------------------------------------------------------
Time: 223
[[0, 2, 0, 0, 2, 2], [2, 0, 0, 0, 2, 2], [0, 0, 0, 2, 0, 2], [0, 0, 2, 0, 0, 0], [2, 2, 0, 0, 0, 2], [2, 2, 2, 0, 2, 0]]
----------------------------------------------------------
Time: 225
[[0, 2, 0, 0, 2, 2], [2, 0, 0, 0, 2, 2], [0, 0, 0, 2, 0, 2], [0, 0, 2, 0, 0, 0], [2, 2, 0, 0, 0, 2], [2, 2, 2, 0, 2, 0]]
----------------------------------------------------------
Time: 227
[[0, 2, 0, 0, 2, 2], [2, 0, 0, 0, 2, 2], [0, 0, 0, 2, 0, 2], [0, 0, 2, 0, 0, 0], [2, 2, 0, 0, 0, 2], [2, 2, 2, 0, 2, 0]]
----------------------------------------------------------
Time: 229
[[0, 0, 2, 0, 2, 2], [0, 0, 0, 0, 2, 2], [2, 0, 0, 0, 0, 2], [0, 0, 0, 0, 0, 0], [2, 2, 0, 0, 0, 2], [2, 2, 2, 0, 2, 0]]
----------------------------------------------------------
Time: 231
[[0, 0, 2, 0, 2, 2], [0, 0, 0, 0, 0, 0], [2, 0, 0, 0, 0, 2], [0, 0, 0, 0, 0, 2], [2, 0, 0, 0, 0, 2], [2, 0, 2, 2, 2, 0]]
----------------------------------------------------------
Time: 233
[[0, 0, 2, 0, 2, 2], [0, 0, 0, 2, 0, 0], [2, 0, 0, 0, 0, 2], [0, 2, 0, 0, 0, 0], [2, 0, 0, 0, 0, 2], [2, 0, 2, 0, 2, 0]]
----------------------------------------------------------
Time: 235
[[0, 0, 2, 0, 2, 2], [0, 0, 0, 2, 0, 0], [2, 0, 0, 0, 0, 2], [0, 2, 0, 0, 0, 0], [2, 0, 0, 0, 0, 2], [2, 0, 2, 0, 2, 0]]
----------------------------------------------------------
Time: 237
[[0, 0, 0, 0, 2, 2], [0, 0, 0, 2, 0, 0], [0, 0, 0, 0, 0, 2], [0, 2, 0, 0, 0, 0], [2, 0, 0, 0, 0, 2], [2, 0, 2, 0, 2, 0]]
----------------------------------------------------------
Time: 239
[[0, 0, 0, 2, 2, 2], [0, 0, 0, 2, 0, 0], [0, 0, 0, 0, 0, 0], [2, 2, 0, 0, 0, 2], [2, 0, 0, 0, 0, 2], [2, 0, 0, 2, 2, 0]]
----------------------------------------------------------
Time: 241
[[0, 1, 0, 2, 2, 2], [0, 0, 2, 0, 2, 0], [0, 2, 0, 0, 0, 0], [2, 0, 0, 0, 0, 2], [2, 2, 0, 0, 0, 2], [2, 0, 0, 2, 2, 0]]
----------------------------------------------------------
Time: 243
[[0, 0, 0, 2, 2, 2], [0, 0, 2, 0, 2, 0], [0, 2, 0, 0, 0, 0], [2, 0, 0, 0, 0, 2], [2, 2, 0, 0, 0, 2], [2, 0, 0, 2, 2, 0]]
----------------------------------------------------------
Time: 245
[[0, 2, 0, 2, 2, 2], [2, 0, 2, 0, 2, 0], [0, 2, 0, 0, 0, 0], [2, 0, 0, 0, 0, 2], [2, 2, 0, 0, 0, 2], [2, 0, 0, 2, 2, 0]]
----------------------------------------------------------
Time: 247
[[0, 2, 0, 0, 2, 2], [2, 0, 2, 0, 2, 0], [0, 2, 0, 0, 0, 0], [0, 0, 0, 0, 0, 2], [2, 2, 0, 0, 0, 2], [2, 0, 0, 2, 2, 0]]
----------------------------------------------------------
Time: 249
[[0, 2, 0, 0, 2, 2], [2, 0, 0, 0, 2, 0], [0, 0, 0, 0, 0, 0], [0, 0, 0, 0, 0, 0], [2, 2, 0, 0, 0, 2], [2, 0, 0, 0, 2, 0]]
----------------------------------------------------------
Time: 251
[[0, 2, 0, 0, 2, 2], [2, 0, 0, 0, 2, 0], [0, 0, 0, 0, 0, 0], [0, 0, 0, 0, 0, 0], [2, 2, 0, 0, 0, 2], [2, 0, 0, 0, 2, 0]]
----------------------------------------------------------
Time: 253
[[0, 2, 0, 0, 2, 2], [2, 0, 0, 0, 2, 0], [0, 0, 0, 0, 0, 0], [0, 0, 0, 0, 0, 0], [2, 2, 0, 0, 0, 2], [2, 0, 0, 0, 2, 0]]
----------------------------------------------------------
Time: 255
[[0, 2, 0, 0, 2, 2], [2, 0, 0, 0, 2, 0], [0, 0, 0, 0, 0, 0], [0, 0, 0, 0, 0, 0], [2, 2, 0, 0, 0, 2], [2, 0, 0, 0, 2, 0]]
----------------------------------------------------------
Time: 257
[[0, 2, 0, 0, 2, 2], [2, 0, 0, 0, 2, 0], [0, 0, 0, 0, 0, 0], [0, 0, 0, 0, 0, 0], [2, 2, 0, 0, 0, 2], [2, 0, 0, 0, 2, 0]]
----------------------------------------------------------
Time: 259
[[0, 2, 0, 0, 2, 2], [2, 0, 0, 0, 2, 0], [0, 0, 0, 0, 0, 0], [0, 0, 0, 0, 0, 0], [2, 2, 0, 0, 0, 2], [2, 0, 0, 0, 2, 0]]
----------------------------------------------------------
Time: 261
[[0, 2, 0, 0, 2, 2], [2, 0, 0, 0, 2, 0], [0, 0, 0, 0, 0, 0], [0, 0, 0, 0, 0, 0], [2, 2, 0, 0, 0, 2], [2, 0, 0, 0, 2, 0]]
----------------------------------------------------------
Time: 263
[[0, 2, 0, 0, 2, 2], [2, 0, 0, 0, 2, 0], [0, 0, 0, 0, 0, 0], [0, 0, 0, 0, 0, 0], [2, 2, 0, 0, 0, 2], [2, 0, 0, 0, 2, 0]]
----------------------------------------------------------
Time: 265
[[0, 2, 0, 0, 2, 2], [2, 0, 0, 0, 2, 0], [0, 0, 0, 0, 0, 0], [0, 0, 0, 0, 0, 0], [2, 2, 0, 0, 0, 2], [2, 0, 0, 0, 2, 0]]
----------------------------------------------------------
Time: 267
[[0, 2, 0, 0, 2, 2], [2, 0, 0, 0, 2, 0], [0, 0, 0, 0, 0, 0], [0, 0, 0, 0, 0, 0], [2, 2, 0, 0, 0, 2], [2, 0, 0, 0, 2, 0]]
----------------------------------------------------------
Time: 269
[[0, 2, 0, 0, 2, 2], [2, 0, 0, 0, 2, 0], [0, 0, 0, 0, 0, 0], [0, 0, 0, 0, 0, 0], [2, 2, 0, 0, 0, 2], [2, 0, 0, 0, 2, 0]]
----------------------------------------------------------
Time: 271
[[0, 2, 0, 0, 2, 2], [2, 0, 0, 0, 2, 0], [0, 0, 0, 0, 0, 0], [0, 0, 0, 0, 0, 0], [2, 2, 0, 0, 0, 2], [2, 0, 0, 0, 2, 0]]
----------------------------------------------------------
Time: 273
[[0, 2, 0, 0, 2, 2], [2, 0, 0, 0, 2, 0], [0, 0, 0, 0, 0, 0], [0, 0, 0, 0, 0, 0], [2, 2, 0, 0, 0, 2], [2, 0, 0, 0, 2, 0]]
----------------------------------------------------------
Time: 275
[[0, 2, 0, 0, 2, 2], [2, 0, 0, 0, 2, 0], [0, 0, 0, 0, 0, 0], [0, 0, 0, 0, 0, 0], [2, 2, 0, 0, 0, 2], [2, 0, 0, 0, 2, 0]]
----------------------------------------------------------
Time: 277
[[0, 2, 0, 0, 2, 2], [2, 0, 0, 0, 2, 0], [0, 0, 0, 0, 0, 0], [0, 0, 0, 0, 0, 0], [2, 2, 0, 0, 0, 2], [2, 0, 0, 0, 2, 0]]
----------------------------------------------------------
Time: 279
[[0, 2, 0, 0, 2, 2], [2, 0, 0, 0, 2, 0], [0, 0, 0, 0, 0, 0], [0, 0, 0, 0, 0, 0], [2, 2, 0, 0, 0, 2], [2, 0, 0, 0, 2, 0]]
----------------------------------------------------------
Time: 281
[[0, 2, 0, 0, 2, 2], [2, 0, 0, 0, 2, 0], [0, 0, 0, 0, 0, 0], [0, 0, 0, 0, 0, 0], [2, 2, 0, 0, 0, 2], [2, 0, 0, 0, 2, 0]]
----------------------------------------------------------
Time: 283
[[0, 2, 0, 0, 2, 2], [2, 0, 0, 0, 2, 0], [0, 0, 0, 0, 0, 0], [0, 0, 0, 0, 0, 0], [2, 2, 0, 0, 0, 2], [2, 0, 0, 0, 2, 0]]
----------------------------------------------------------
Time: 285
[[0, 2, 0, 0, 2, 2], [2, 0, 0, 0, 2, 0], [0, 0, 0, 0, 0, 0], [0, 0, 0, 0, 0, 0], [2, 2, 0, 0, 0, 2], [2, 0, 0, 0, 2, 0]]
----------------------------------------------------------
Time: 287
[[0, 2, 0, 0, 2, 2], [2, 0, 0, 0, 2, 0], [0, 0, 0, 0, 0, 0], [0, 0, 0, 0, 0, 0], [2, 2, 0, 0, 0, 2], [2, 0, 0, 0, 2, 0]]
----------------------------------------------------------
Time: 289
[[0, 2, 0, 0, 2, 2], [2, 0, 0, 0, 2, 0], [0, 0, 0, 0, 0, 0], [0, 0, 0, 0, 0, 0], [2, 2, 0, 0, 0, 2], [2, 0, 0, 0, 2, 0]]
----------------------------------------------------------
Time: 291
[[0, 1, 1, 2, 2, 1], [0, 0, 0, 0, 2, 0], [0, 0, 0, 2, 2, 0], [2, 0, 2, 0, 0, 2], [2, 2, 2, 0, 0, 2], [0, 0, 0, 2, 2, 0]]
----------------------------------------------------------
Time: 293
[[0, 1, 1, 2, 2, 1], [0, 0, 0, 0, 2, 0], [0, 0, 0, 2, 2, 0], [2, 0, 2, 0, 0, 2], [2, 2, 2, 0, 0, 2], [0, 0, 0, 2, 2, 0]]
----------------------------------------------------------
Time: 295
[[0, 1, 1, 2, 2, 1], [0, 0, 0, 0, 2, 0], [0, 0, 0, 2, 2, 0], [2, 0, 2, 0, 0, 2], [2, 2, 2, 0, 0, 2], [0, 0, 0, 2, 2, 0]]
----------------------------------------------------------
Time: 297
[[0, 1, 1, 2, 2, 1], [0, 0, 0, 0, 2, 0], [0, 0, 0, 2, 2, 0], [2, 0, 2, 0, 0, 2], [2, 2, 2, 0, 0, 2], [0, 0, 0, 2, 2, 0]]
----------------------------------------------------------
Time: 299
[[0, 1, 1, 2, 2, 1], [0, 0, 0, 0, 2, 0], [0, 0, 0, 2, 2, 0], [2, 0, 2, 0, 0, 2], [2, 2, 2, 0, 0, 2], [0, 0, 0, 2, 2, 0]]
----------------------------------------------------------
