Time: 0
[]
----------------------------------------------------------
Time: 2
['Address: 127.0.0.1:9030, Sent Packets: 1, Recieved Packets: 0']
----------------------------------------------------------
Time: 4
['Address: 127.0.0.1:9030, Sent Packets: 2, Recieved Packets: 1']
----------------------------------------------------------
Time: 6
['Address: 127.0.0.1:9030, Sent Packets: 3, Recieved Packets: 2']
----------------------------------------------------------
Time: 8
['Address: 127.0.0.1:9030, Sent Packets: 4, Recieved Packets: 3']
----------------------------------------------------------
Time: 10
['Address: 127.0.0.1:9000, Sent Packets: 1, Recieved Packets: 1', 'Address: 127.0.0.1:9010, Sent Packets: 1, Recieved Packets: 0', 'Address: 127.0.0.1:9020, Sent Packets: 1, Recieved Packets: 1', 'Address: 127.0.0.1:9030, Sent Packets: 5, Recieved Packets: 4']
----------------------------------------------------------
Time: 12
['Address: 127.0.0.1:9000, Sent Packets: 2, Recieved Packets: 2', 'Address: 127.0.0.1:9010, Sent Packets: 1, Recieved Packets: 0', 'Address: 127.0.0.1:9020, Sent Packets: 2, Recieved Packets: 2', 'Address: 127.0.0.1:9030, Sent Packets: 6, Recieved Packets: 5']
----------------------------------------------------------
Time: 14
['Address: 127.0.0.1:9000, Sent Packets: 3, Recieved Packets: 2', 'Address: 127.0.0.1:9010, Sent Packets: 1, Recieved Packets: 0', 'Address: 127.0.0.1:9020, Sent Packets: 3, Recieved Packets: 3', 'Address: 127.0.0.1:9030, Sent Packets: 7, Recieved Packets: 7']
----------------------------------------------------------
Time: 16
['Address: 127.0.0.1:9000, Sent Packets: 4, Recieved Packets: 3', 'Address: 127.0.0.1:9010, Sent Packets: 1, Recieved Packets: 0', 'Address: 127.0.0.1:9020, Sent Packets: 4, Recieved Packets: 4', 'Address: 127.0.0.1:9030, Sent Packets: 8, Recieved Packets: 8']
----------------------------------------------------------
Time: 18
['Address: 127.0.0.1:9000, Sent Packets: 5, Recieved Packets: 4', 'Address: 127.0.0.1:9010, Sent Packets: 1, Recieved Packets: 0', 'Address: 127.0.0.1:9020, Sent Packets: 5, Recieved Packets: 6', 'Address: 127.0.0.1:9030, Sent Packets: 9, Recieved Packets: 9']
----------------------------------------------------------
Time: 20
['Address: 127.0.0.1:9000, Sent Packets: 6, Recieved Packets: 4', 'Address: 127.0.0.1:9010, Sent Packets: 1, Recieved Packets: 0', 'Address: 127.0.0.1:9020, Sent Packets: 6, Recieved Packets: 7', 'Address: 127.0.0.1:9030, Sent Packets: 10, Recieved Packets: 10']
----------------------------------------------------------
Time: 22
['Address: 127.0.0.1:9000, Sent Packets: 7, Recieved Packets: 4', 'Address: 127.0.0.1:9010, Sent Packets: 1, Recieved Packets: 0', 'Address: 127.0.0.1:9020, Sent Packets: 7, Recieved Packets: 8', 'Address: 127.0.0.1:9030, Sent Packets: 11, Recieved Packets: 11']
----------------------------------------------------------
Time: 24
['Address: 127.0.0.1:9000, Sent Packets: 8, Recieved Packets: 4', 'Address: 127.0.0.1:9010, Sent Packets: 1, Recieved Packets: 0', 'Address: 127.0.0.1:9020, Sent Packets: 8, Recieved Packets: 9', 'Address: 127.0.0.1:9030, Sent Packets: 12, Recieved Packets: 12']
----------------------------------------------------------
Time: 26
['Address: 127.0.0.1:9000, Sent Packets: 8, Recieved Packets: 4', 'Address: 127.0.0.1:9010, Sent Packets: 2, Recieved Packets: 0', 'Address: 127.0.0.1:9020, Sent Packets: 9, Recieved Packets: 10', 'Address: 127.0.0.1:9030, Sent Packets: 12, Recieved Packets: 13']
----------------------------------------------------------
Time: 28
['Address: 127.0.0.1:9000, Sent Packets: 8, Recieved Packets: 4', 'Address: 127.0.0.1:9010, Sent Packets: 2, Recieved Packets: 0', 'Address: 127.0.0.1:9020, Sent Packets: 10, Recieved Packets: 11', 'Address: 127.0.0.1:9030, Sent Packets: 13, Recieved Packets: 14']
----------------------------------------------------------
Time: 30
['Address: 127.0.0.1:9000, Sent Packets: 8, Recieved Packets: 4', 'Address: 127.0.0.1:9010, Sent Packets: 2, Recieved Packets: 0', 'Address: 127.0.0.1:9020, Sent Packets: 11, Recieved Packets: 12', 'Address: 127.0.0.1:9030, Sent Packets: 14, Recieved Packets: 14']
----------------------------------------------------------
Time: 32
['Address: 127.0.0.1:9000, Sent Packets: 8, Recieved Packets: 4', 'Address: 127.0.0.1:9010, Sent Packets: 2, Recieved Packets: 0', 'Address: 127.0.0.1:9020, Sent Packets: 12, Recieved Packets: 13', 'Address: 127.0.0.1:9030, Sent Packets: 15, Recieved Packets: 16']
----------------------------------------------------------
Time: 34
['Address: 127.0.0.1:9000, Sent Packets: 9, Recieved Packets: 4', 'Address: 127.0.0.1:9010, Sent Packets: 2, Recieved Packets: 0', 'Address: 127.0.0.1:9020, Sent Packets: 13, Recieved Packets: 14', 'Address: 127.0.0.1:9030, Sent Packets: 16, Recieved Packets: 17']
----------------------------------------------------------
Time: 36
['Address: 127.0.0.1:9000, Sent Packets: 9, Recieved Packets: 4', 'Address: 127.0.0.1:9010, Sent Packets: 2, Recieved Packets: 0', 'Address: 127.0.0.1:9020, Sent Packets: 14, Recieved Packets: 15', 'Address: 127.0.0.1:9030, Sent Packets: 17, Recieved Packets: 18', 'Address: 127.0.0.1:9050, Sent Packets: 1, Recieved Packets: 2']
----------------------------------------------------------
Time: 38
['Address: 127.0.0.1:9000, Sent Packets: 9, Recieved Packets: 4', 'Address: 127.0.0.1:9010, Sent Packets: 2, Recieved Packets: 0', 'Address: 127.0.0.1:9020, Sent Packets: 15, Recieved Packets: 16', 'Address: 127.0.0.1:9030, Sent Packets: 18, Recieved Packets: 19', 'Address: 127.0.0.1:9050, Sent Packets: 2, Recieved Packets: 3']
----------------------------------------------------------
Time: 40
['Address: 127.0.0.1:9000, Sent Packets: 9, Recieved Packets: 4', 'Address: 127.0.0.1:9010, Sent Packets: 2, Recieved Packets: 0', 'Address: 127.0.0.1:9020, Sent Packets: 16, Recieved Packets: 17', 'Address: 127.0.0.1:9030, Sent Packets: 19, Recieved Packets: 20', 'Address: 127.0.0.1:9050, Sent Packets: 3, Recieved Packets: 4']
----------------------------------------------------------
Time: 42
['Address: 127.0.0.1:9000, Sent Packets: 9, Recieved Packets: 4', 'Address: 127.0.0.1:9010, Sent Packets: 2, Recieved Packets: 0', 'Address: 127.0.0.1:9020, Sent Packets: 17, Recieved Packets: 18', 'Address: 127.0.0.1:9030, Sent Packets: 20, Recieved Packets: 21', 'Address: 127.0.0.1:9050, Sent Packets: 4, Recieved Packets: 5']
----------------------------------------------------------
Time: 44
['Address: 127.0.0.1:9000, Sent Packets: 9, Recieved Packets: 4', 'Address: 127.0.0.1:9010, Sent Packets: 2, Recieved Packets: 0', 'Address: 127.0.0.1:9020, Sent Packets: 18, Recieved Packets: 18', 'Address: 127.0.0.1:9030, Sent Packets: 21, Recieved Packets: 22', 'Address: 127.0.0.1:9050, Sent Packets: 5, Recieved Packets: 6']
----------------------------------------------------------
Time: 46
['Address: 127.0.0.1:9000, Sent Packets: 9, Recieved Packets: 4', 'Address: 127.0.0.1:9010, Sent Packets: 2, Recieved Packets: 0', 'Address: 127.0.0.1:9020, Sent Packets: 19, Recieved Packets: 19', 'Address: 127.0.0.1:9030, Sent Packets: 22, Recieved Packets: 23', 'Address: 127.0.0.1:9050, Sent Packets: 6, Recieved Packets: 7']
----------------------------------------------------------
Time: 48
['Address: 127.0.0.1:9000, Sent Packets: 9, Recieved Packets: 4', 'Address: 127.0.0.1:9010, Sent Packets: 2, Recieved Packets: 0', 'Address: 127.0.0.1:9020, Sent Packets: 20, Recieved Packets: 20', 'Address: 127.0.0.1:9030, Sent Packets: 23, Recieved Packets: 24', 'Address: 127.0.0.1:9050, Sent Packets: 6, Recieved Packets: 8']
----------------------------------------------------------
Time: 50
['Address: 127.0.0.1:9000, Sent Packets: 9, Recieved Packets: 4', 'Address: 127.0.0.1:9010, Sent Packets: 3, Recieved Packets: 2', 'Address: 127.0.0.1:9020, Sent Packets: 21, Recieved Packets: 20', 'Address: 127.0.0.1:9030, Sent Packets: 24, Recieved Packets: 25', 'Address: 127.0.0.1:9050, Sent Packets: 7, Recieved Packets: 8']
----------------------------------------------------------
Time: 52
['Address: 127.0.0.1:9000, Sent Packets: 9, Recieved Packets: 4', 'Address: 127.0.0.1:9010, Sent Packets: 3, Recieved Packets: 3', 'Address: 127.0.0.1:9020, Sent Packets: 22, Recieved Packets: 21', 'Address: 127.0.0.1:9030, Sent Packets: 25, Recieved Packets: 26', 'Address: 127.0.0.1:9050, Sent Packets: 8, Recieved Packets: 8']
----------------------------------------------------------
Time: 54
['Address: 127.0.0.1:9000, Sent Packets: 9, Recieved Packets: 4', 'Address: 127.0.0.1:9010, Sent Packets: 3, Recieved Packets: 4', 'Address: 127.0.0.1:9020, Sent Packets: 23, Recieved Packets: 22', 'Address: 127.0.0.1:9030, Sent Packets: 26, Recieved Packets: 26', 'Address: 127.0.0.1:9050, Sent Packets: 9, Recieved Packets: 8']
----------------------------------------------------------
Time: 56
['Address: 127.0.0.1:9000, Sent Packets: 9, Recieved Packets: 4', 'Address: 127.0.0.1:9010, Sent Packets: 3, Recieved Packets: 5', 'Address: 127.0.0.1:9020, Sent Packets: 24, Recieved Packets: 23', 'Address: 127.0.0.1:9030, Sent Packets: 27, Recieved Packets: 27', 'Address: 127.0.0.1:9050, Sent Packets: 10, Recieved Packets: 8']
----------------------------------------------------------
Time: 58
['Address: 127.0.0.1:9000, Sent Packets: 9, Recieved Packets: 4', 'Address: 127.0.0.1:9010, Sent Packets: 5, Recieved Packets: 6', 'Address: 127.0.0.1:9020, Sent Packets: 25, Recieved Packets: 24', 'Address: 127.0.0.1:9030, Sent Packets: 28, Recieved Packets: 29', 'Address: 127.0.0.1:9050, Sent Packets: 10, Recieved Packets: 8']
----------------------------------------------------------
Time: 60
['Address: 127.0.0.1:9000, Sent Packets: 9, Recieved Packets: 4', 'Address: 127.0.0.1:9010, Sent Packets: 6, Recieved Packets: 7', 'Address: 127.0.0.1:9020, Sent Packets: 26, Recieved Packets: 25', 'Address: 127.0.0.1:9030, Sent Packets: 29, Recieved Packets: 30', 'Address: 127.0.0.1:9050, Sent Packets: 10, Recieved Packets: 8']
----------------------------------------------------------
Time: 62
['Address: 127.0.0.1:9000, Sent Packets: 9, Recieved Packets: 4', 'Address: 127.0.0.1:9010, Sent Packets: 7, Recieved Packets: 8', 'Address: 127.0.0.1:9020, Sent Packets: 27, Recieved Packets: 26', 'Address: 127.0.0.1:9030, Sent Packets: 30, Recieved Packets: 30', 'Address: 127.0.0.1:9050, Sent Packets: 10, Recieved Packets: 8']
----------------------------------------------------------
Time: 64
['Address: 127.0.0.1:9000, Sent Packets: 9, Recieved Packets: 4', 'Address: 127.0.0.1:9010, Sent Packets: 8, Recieved Packets: 9', 'Address: 127.0.0.1:9020, Sent Packets: 28, Recieved Packets: 27', 'Address: 127.0.0.1:9030, Sent Packets: 31, Recieved Packets: 32', 'Address: 127.0.0.1:9050, Sent Packets: 10, Recieved Packets: 8']
----------------------------------------------------------
Time: 66
['Address: 127.0.0.1:9000, Sent Packets: 9, Recieved Packets: 4', 'Address: 127.0.0.1:9010, Sent Packets: 9, Recieved Packets: 10', 'Address: 127.0.0.1:9020, Sent Packets: 29, Recieved Packets: 28', 'Address: 127.0.0.1:9030, Sent Packets: 32, Recieved Packets: 33', 'Address: 127.0.0.1:9050, Sent Packets: 10, Recieved Packets: 8']
----------------------------------------------------------
Time: 68
['Address: 127.0.0.1:9000, Sent Packets: 9, Recieved Packets: 4', 'Address: 127.0.0.1:9010, Sent Packets: 10, Recieved Packets: 11', 'Address: 127.0.0.1:9020, Sent Packets: 30, Recieved Packets: 29', 'Address: 127.0.0.1:9030, Sent Packets: 32, Recieved Packets: 34', 'Address: 127.0.0.1:9050, Sent Packets: 10, Recieved Packets: 8']
----------------------------------------------------------
Time: 70
['Address: 127.0.0.1:9000, Sent Packets: 9, Recieved Packets: 4', 'Address: 127.0.0.1:9010, Sent Packets: 11, Recieved Packets: 11', 'Address: 127.0.0.1:9020, Sent Packets: 31, Recieved Packets: 30', 'Address: 127.0.0.1:9030, Sent Packets: 33, Recieved Packets: 34', 'Address: 127.0.0.1:9050, Sent Packets: 10, Recieved Packets: 8']
----------------------------------------------------------
Time: 72
['Address: 127.0.0.1:9000, Sent Packets: 9, Recieved Packets: 4', 'Address: 127.0.0.1:9010, Sent Packets: 12, Recieved Packets: 12', 'Address: 127.0.0.1:9020, Sent Packets: 32, Recieved Packets: 30', 'Address: 127.0.0.1:9030, Sent Packets: 34, Recieved Packets: 35', 'Address: 127.0.0.1:9050, Sent Packets: 10, Recieved Packets: 9']
----------------------------------------------------------
Time: 74
['Address: 127.0.0.1:9000, Sent Packets: 9, Recieved Packets: 4', 'Address: 127.0.0.1:9010, Sent Packets: 13, Recieved Packets: 12', 'Address: 127.0.0.1:9020, Sent Packets: 33, Recieved Packets: 30', 'Address: 127.0.0.1:9030, Sent Packets: 35, Recieved Packets: 36', 'Address: 127.0.0.1:9050, Sent Packets: 10, Recieved Packets: 10']
----------------------------------------------------------
Time: 76
['Address: 127.0.0.1:9000, Sent Packets: 9, Recieved Packets: 4', 'Address: 127.0.0.1:9010, Sent Packets: 14, Recieved Packets: 13', 'Address: 127.0.0.1:9020, Sent Packets: 34, Recieved Packets: 30', 'Address: 127.0.0.1:9030, Sent Packets: 35, Recieved Packets: 38', 'Address: 127.0.0.1:9050, Sent Packets: 10, Recieved Packets: 11']
----------------------------------------------------------
Time: 78
['Address: 127.0.0.1:9000, Sent Packets: 9, Recieved Packets: 4', 'Address: 127.0.0.1:9010, Sent Packets: 14, Recieved Packets: 14', 'Address: 127.0.0.1:9020, Sent Packets: 34, Recieved Packets: 30', 'Address: 127.0.0.1:9030, Sent Packets: 36, Recieved Packets: 39', 'Address: 127.0.0.1:9050, Sent Packets: 12, Recieved Packets: 12']
----------------------------------------------------------
Time: 80
['Address: 127.0.0.1:9000, Sent Packets: 9, Recieved Packets: 5', 'Address: 127.0.0.1:9010, Sent Packets: 15, Recieved Packets: 15', 'Address: 127.0.0.1:9020, Sent Packets: 34, Recieved Packets: 30', 'Address: 127.0.0.1:9030, Sent Packets: 37, Recieved Packets: 40', 'Address: 127.0.0.1:9050, Sent Packets: 13, Recieved Packets: 12']
----------------------------------------------------------
Time: 82
['Address: 127.0.0.1:9000, Sent Packets: 9, Recieved Packets: 6', 'Address: 127.0.0.1:9010, Sent Packets: 16, Recieved Packets: 15', 'Address: 127.0.0.1:9020, Sent Packets: 34, Recieved Packets: 30', 'Address: 127.0.0.1:9030, Sent Packets: 38, Recieved Packets: 40', 'Address: 127.0.0.1:9050, Sent Packets: 14, Recieved Packets: 12']
----------------------------------------------------------
Time: 84
['Address: 127.0.0.1:9000, Sent Packets: 9, Recieved Packets: 7', 'Address: 127.0.0.1:9010, Sent Packets: 17, Recieved Packets: 17', 'Address: 127.0.0.1:9020, Sent Packets: 34, Recieved Packets: 30', 'Address: 127.0.0.1:9030, Sent Packets: 39, Recieved Packets: 41', 'Address: 127.0.0.1:9050, Sent Packets: 15, Recieved Packets: 12']
----------------------------------------------------------
Time: 86
['Address: 127.0.0.1:9000, Sent Packets: 9, Recieved Packets: 8', 'Address: 127.0.0.1:9010, Sent Packets: 18, Recieved Packets: 18', 'Address: 127.0.0.1:9020, Sent Packets: 35, Recieved Packets: 30', 'Address: 127.0.0.1:9030, Sent Packets: 40, Recieved Packets: 42', 'Address: 127.0.0.1:9050, Sent Packets: 15, Recieved Packets: 12']
----------------------------------------------------------
Time: 88
['Address: 127.0.0.1:9000, Sent Packets: 10, Recieved Packets: 10', 'Address: 127.0.0.1:9010, Sent Packets: 19, Recieved Packets: 19', 'Address: 127.0.0.1:9020, Sent Packets: 35, Recieved Packets: 30', 'Address: 127.0.0.1:9030, Sent Packets: 41, Recieved Packets: 43', 'Address: 127.0.0.1:9050, Sent Packets: 15, Recieved Packets: 12']
----------------------------------------------------------
Time: 90
['Address: 127.0.0.1:9000, Sent Packets: 11, Recieved Packets: 11', 'Address: 127.0.0.1:9010, Sent Packets: 20, Recieved Packets: 19', 'Address: 127.0.0.1:9020, Sent Packets: 36, Recieved Packets: 32', 'Address: 127.0.0.1:9030, Sent Packets: 42, Recieved Packets: 44', 'Address: 127.0.0.1:9050, Sent Packets: 15, Recieved Packets: 12']
----------------------------------------------------------
Time: 92
['Address: 127.0.0.1:9000, Sent Packets: 12, Recieved Packets: 12', 'Address: 127.0.0.1:9010, Sent Packets: 21, Recieved Packets: 19', 'Address: 127.0.0.1:9020, Sent Packets: 36, Recieved Packets: 33', 'Address: 127.0.0.1:9030, Sent Packets: 43, Recieved Packets: 45', 'Address: 127.0.0.1:9050, Sent Packets: 15, Recieved Packets: 12']
----------------------------------------------------------
Time: 94
['Address: 127.0.0.1:9000, Sent Packets: 13, Recieved Packets: 13', 'Address: 127.0.0.1:9010, Sent Packets: 22, Recieved Packets: 19', 'Address: 127.0.0.1:9020, Sent Packets: 36, Recieved Packets: 34', 'Address: 127.0.0.1:9030, Sent Packets: 44, Recieved Packets: 46', 'Address: 127.0.0.1:9050, Sent Packets: 15, Recieved Packets: 12']
----------------------------------------------------------
Time: 96
['Address: 127.0.0.1:9000, Sent Packets: 14, Recieved Packets: 14', 'Address: 127.0.0.1:9010, Sent Packets: 22, Recieved Packets: 19', 'Address: 127.0.0.1:9020, Sent Packets: 36, Recieved Packets: 35', 'Address: 127.0.0.1:9030, Sent Packets: 44, Recieved Packets: 47', 'Address: 127.0.0.1:9050, Sent Packets: 16, Recieved Packets: 12']
----------------------------------------------------------
Time: 98
['Address: 127.0.0.1:9000, Sent Packets: 15, Recieved Packets: 15', 'Address: 127.0.0.1:9010, Sent Packets: 22, Recieved Packets: 19', 'Address: 127.0.0.1:9020, Sent Packets: 37, Recieved Packets: 36', 'Address: 127.0.0.1:9030, Sent Packets: 45, Recieved Packets: 48', 'Address: 127.0.0.1:9050, Sent Packets: 16, Recieved Packets: 12']
----------------------------------------------------------
Time: 100
['Address: 127.0.0.1:9000, Sent Packets: 16, Recieved Packets: 16', 'Address: 127.0.0.1:9010, Sent Packets: 22, Recieved Packets: 19', 'Address: 127.0.0.1:9020, Sent Packets: 38, Recieved Packets: 36', 'Address: 127.0.0.1:9030, Sent Packets: 46, Recieved Packets: 49', 'Address: 127.0.0.1:9050, Sent Packets: 17, Recieved Packets: 14']
----------------------------------------------------------
Time: 102
['Address: 127.0.0.1:9000, Sent Packets: 17, Recieved Packets: 17', 'Address: 127.0.0.1:9010, Sent Packets: 22, Recieved Packets: 19', 'Address: 127.0.0.1:9020, Sent Packets: 39, Recieved Packets: 36', 'Address: 127.0.0.1:9030, Sent Packets: 47, Recieved Packets: 50', 'Address: 127.0.0.1:9050, Sent Packets: 17, Recieved Packets: 15']
----------------------------------------------------------
Time: 104
['Address: 127.0.0.1:9000, Sent Packets: 18, Recieved Packets: 18', 'Address: 127.0.0.1:9010, Sent Packets: 22, Recieved Packets: 19', 'Address: 127.0.0.1:9020, Sent Packets: 40, Recieved Packets: 36', 'Address: 127.0.0.1:9030, Sent Packets: 48, Recieved Packets: 51', 'Address: 127.0.0.1:9050, Sent Packets: 17, Recieved Packets: 16']
----------------------------------------------------------
Time: 106
['Address: 127.0.0.1:9000, Sent Packets: 19, Recieved Packets: 19', 'Address: 127.0.0.1:9010, Sent Packets: 22, Recieved Packets: 19', 'Address: 127.0.0.1:9020, Sent Packets: 40, Recieved Packets: 36', 'Address: 127.0.0.1:9030, Sent Packets: 49, Recieved Packets: 52', 'Address: 127.0.0.1:9050, Sent Packets: 18, Recieved Packets: 17']
----------------------------------------------------------
Time: 108
['Address: 127.0.0.1:9000, Sent Packets: 20, Recieved Packets: 20', 'Address: 127.0.0.1:9010, Sent Packets: 22, Recieved Packets: 19', 'Address: 127.0.0.1:9020, Sent Packets: 40, Recieved Packets: 36', 'Address: 127.0.0.1:9030, Sent Packets: 50, Recieved Packets: 53', 'Address: 127.0.0.1:9050, Sent Packets: 19, Recieved Packets: 18']
----------------------------------------------------------
Time: 110
['Address: 127.0.0.1:9000, Sent Packets: 21, Recieved Packets: 21', 'Address: 127.0.0.1:9010, Sent Packets: 23, Recieved Packets: 21', 'Address: 127.0.0.1:9020, Sent Packets: 40, Recieved Packets: 36', 'Address: 127.0.0.1:9030, Sent Packets: 51, Recieved Packets: 53', 'Address: 127.0.0.1:9050, Sent Packets: 20, Recieved Packets: 19']
----------------------------------------------------------
Time: 112
['Address: 127.0.0.1:9000, Sent Packets: 22, Recieved Packets: 22', 'Address: 127.0.0.1:9010, Sent Packets: 23, Recieved Packets: 22', 'Address: 127.0.0.1:9020, Sent Packets: 40, Recieved Packets: 36', 'Address: 127.0.0.1:9030, Sent Packets: 52, Recieved Packets: 53', 'Address: 127.0.0.1:9050, Sent Packets: 21, Recieved Packets: 20']
----------------------------------------------------------
Time: 114
['Address: 127.0.0.1:9000, Sent Packets: 23, Recieved Packets: 23', 'Address: 127.0.0.1:9010, Sent Packets: 23, Recieved Packets: 23', 'Address: 127.0.0.1:9020, Sent Packets: 40, Recieved Packets: 36', 'Address: 127.0.0.1:9030, Sent Packets: 53, Recieved Packets: 53', 'Address: 127.0.0.1:9050, Sent Packets: 22, Recieved Packets: 21']
----------------------------------------------------------
Time: 116
['Address: 127.0.0.1:9000, Sent Packets: 24, Recieved Packets: 24', 'Address: 127.0.0.1:9010, Sent Packets: 24, Recieved Packets: 24', 'Address: 127.0.0.1:9020, Sent Packets: 40, Recieved Packets: 36', 'Address: 127.0.0.1:9030, Sent Packets: 53, Recieved Packets: 53', 'Address: 127.0.0.1:9050, Sent Packets: 22, Recieved Packets: 22']
----------------------------------------------------------
Time: 118
['Address: 127.0.0.1:9000, Sent Packets: 25, Recieved Packets: 25', 'Address: 127.0.0.1:9010, Sent Packets: 25, Recieved Packets: 25', 'Address: 127.0.0.1:9020, Sent Packets: 40, Recieved Packets: 36', 'Address: 127.0.0.1:9030, Sent Packets: 53, Recieved Packets: 53', 'Address: 127.0.0.1:9050, Sent Packets: 23, Recieved Packets: 23']
----------------------------------------------------------
Time: 120
['Address: 127.0.0.1:9000, Sent Packets: 26, Recieved Packets: 26', 'Address: 127.0.0.1:9010, Sent Packets: 26, Recieved Packets: 25', 'Address: 127.0.0.1:9020, Sent Packets: 40, Recieved Packets: 37', 'Address: 127.0.0.1:9030, Sent Packets: 53, Recieved Packets: 53', 'Address: 127.0.0.1:9050, Sent Packets: 24, Recieved Packets: 24']
----------------------------------------------------------
Time: 122
['Address: 127.0.0.1:9000, Sent Packets: 27, Recieved Packets: 27', 'Address: 127.0.0.1:9010, Sent Packets: 27, Recieved Packets: 25', 'Address: 127.0.0.1:9020, Sent Packets: 40, Recieved Packets: 38', 'Address: 127.0.0.1:9030, Sent Packets: 53, Recieved Packets: 53', 'Address: 127.0.0.1:9050, Sent Packets: 25, Recieved Packets: 25']
----------------------------------------------------------
Time: 124
['Address: 127.0.0.1:9000, Sent Packets: 28, Recieved Packets: 28', 'Address: 127.0.0.1:9010, Sent Packets: 28, Recieved Packets: 25', 'Address: 127.0.0.1:9020, Sent Packets: 40, Recieved Packets: 39', 'Address: 127.0.0.1:9030, Sent Packets: 53, Recieved Packets: 53', 'Address: 127.0.0.1:9050, Sent Packets: 26, Recieved Packets: 26']
----------------------------------------------------------
Time: 126
['Address: 127.0.0.1:9000, Sent Packets: 29, Recieved Packets: 29', 'Address: 127.0.0.1:9010, Sent Packets: 29, Recieved Packets: 25', 'Address: 127.0.0.1:9020, Sent Packets: 40, Recieved Packets: 40', 'Address: 127.0.0.1:9030, Sent Packets: 53, Recieved Packets: 53', 'Address: 127.0.0.1:9050, Sent Packets: 27, Recieved Packets: 27']
----------------------------------------------------------
Time: 128
['Address: 127.0.0.1:9000, Sent Packets: 30, Recieved Packets: 30', 'Address: 127.0.0.1:9010, Sent Packets: 29, Recieved Packets: 25', 'Address: 127.0.0.1:9020, Sent Packets: 41, Recieved Packets: 41', 'Address: 127.0.0.1:9030, Sent Packets: 53, Recieved Packets: 53', 'Address: 127.0.0.1:9050, Sent Packets: 28, Recieved Packets: 28']
----------------------------------------------------------
Time: 130
['Address: 127.0.0.1:9000, Sent Packets: 31, Recieved Packets: 31', 'Address: 127.0.0.1:9010, Sent Packets: 29, Recieved Packets: 25', 'Address: 127.0.0.1:9020, Sent Packets: 42, Recieved Packets: 41', 'Address: 127.0.0.1:9030, Sent Packets: 53, Recieved Packets: 54', 'Address: 127.0.0.1:9050, Sent Packets: 29, Recieved Packets: 29']
----------------------------------------------------------
Time: 132
['Address: 127.0.0.1:9000, Sent Packets: 32, Recieved Packets: 31', 'Address: 127.0.0.1:9010, Sent Packets: 29, Recieved Packets: 25', 'Address: 127.0.0.1:9020, Sent Packets: 43, Recieved Packets: 41', 'Address: 127.0.0.1:9030, Sent Packets: 53, Recieved Packets: 54', 'Address: 127.0.0.1:9050, Sent Packets: 30, Recieved Packets: 30']
----------------------------------------------------------
Time: 134
['Address: 127.0.0.1:9000, Sent Packets: 33, Recieved Packets: 33', 'Address: 127.0.0.1:9010, Sent Packets: 29, Recieved Packets: 25', 'Address: 127.0.0.1:9020, Sent Packets: 44, Recieved Packets: 41', 'Address: 127.0.0.1:9030, Sent Packets: 53, Recieved Packets: 54', 'Address: 127.0.0.1:9050, Sent Packets: 31, Recieved Packets: 31']
----------------------------------------------------------
Time: 136
['Address: 127.0.0.1:9000, Sent Packets: 34, Recieved Packets: 34', 'Address: 127.0.0.1:9010, Sent Packets: 29, Recieved Packets: 25', 'Address: 127.0.0.1:9020, Sent Packets: 45, Recieved Packets: 41', 'Address: 127.0.0.1:9030, Sent Packets: 53, Recieved Packets: 54', 'Address: 127.0.0.1:9050, Sent Packets: 32, Recieved Packets: 32']
----------------------------------------------------------
Time: 138
['Address: 127.0.0.1:9000, Sent Packets: 35, Recieved Packets: 35', 'Address: 127.0.0.1:9010, Sent Packets: 29, Recieved Packets: 25', 'Address: 127.0.0.1:9020, Sent Packets: 45, Recieved Packets: 41', 'Address: 127.0.0.1:9030, Sent Packets: 53, Recieved Packets: 54', 'Address: 127.0.0.1:9050, Sent Packets: 33, Recieved Packets: 33']
----------------------------------------------------------
Time: 140
['Address: 127.0.0.1:9000, Sent Packets: 36, Recieved Packets: 35', 'Address: 127.0.0.1:9010, Sent Packets: 30, Recieved Packets: 26', 'Address: 127.0.0.1:9020, Sent Packets: 45, Recieved Packets: 41', 'Address: 127.0.0.1:9030, Sent Packets: 53, Recieved Packets: 54', 'Address: 127.0.0.1:9050, Sent Packets: 34, Recieved Packets: 34']
----------------------------------------------------------
Time: 142
['Address: 127.0.0.1:9000, Sent Packets: 37, Recieved Packets: 36', 'Address: 127.0.0.1:9010, Sent Packets: 31, Recieved Packets: 27', 'Address: 127.0.0.1:9020, Sent Packets: 45, Recieved Packets: 41', 'Address: 127.0.0.1:9030, Sent Packets: 53, Recieved Packets: 54', 'Address: 127.0.0.1:9050, Sent Packets: 35, Recieved Packets: 34']
----------------------------------------------------------
Time: 144
['Address: 127.0.0.1:9000, Sent Packets: 38, Recieved Packets: 37', 'Address: 127.0.0.1:9010, Sent Packets: 32, Recieved Packets: 28', 'Address: 127.0.0.1:9020, Sent Packets: 45, Recieved Packets: 41', 'Address: 127.0.0.1:9030, Sent Packets: 53, Recieved Packets: 54', 'Address: 127.0.0.1:9050, Sent Packets: 36, Recieved Packets: 35']
----------------------------------------------------------
Time: 146
['Address: 127.0.0.1:9000, Sent Packets: 39, Recieved Packets: 38', 'Address: 127.0.0.1:9010, Sent Packets: 33, Recieved Packets: 29', 'Address: 127.0.0.1:9020, Sent Packets: 45, Recieved Packets: 41', 'Address: 127.0.0.1:9030, Sent Packets: 53, Recieved Packets: 54', 'Address: 127.0.0.1:9050, Sent Packets: 37, Recieved Packets: 36']
----------------------------------------------------------
Time: 148
['Address: 127.0.0.1:9000, Sent Packets: 39, Recieved Packets: 39', 'Address: 127.0.0.1:9010, Sent Packets: 34, Recieved Packets: 30', 'Address: 127.0.0.1:9020, Sent Packets: 45, Recieved Packets: 41', 'Address: 127.0.0.1:9030, Sent Packets: 53, Recieved Packets: 54', 'Address: 127.0.0.1:9050, Sent Packets: 38, Recieved Packets: 37']
----------------------------------------------------------
Time: 150
['Address: 127.0.0.1:9000, Sent Packets: 40, Recieved Packets: 40', 'Address: 127.0.0.1:9010, Sent Packets: 35, Recieved Packets: 30', 'Address: 127.0.0.1:9020, Sent Packets: 45, Recieved Packets: 42', 'Address: 127.0.0.1:9030, Sent Packets: 53, Recieved Packets: 54', 'Address: 127.0.0.1:9050, Sent Packets: 39, Recieved Packets: 38']
----------------------------------------------------------
Time: 152
['Address: 127.0.0.1:9000, Sent Packets: 41, Recieved Packets: 41', 'Address: 127.0.0.1:9010, Sent Packets: 36, Recieved Packets: 30', 'Address: 127.0.0.1:9020, Sent Packets: 45, Recieved Packets: 43', 'Address: 127.0.0.1:9030, Sent Packets: 53, Recieved Packets: 54', 'Address: 127.0.0.1:9050, Sent Packets: 40, Recieved Packets: 39']
----------------------------------------------------------
Time: 154
['Address: 127.0.0.1:9000, Sent Packets: 42, Recieved Packets: 42', 'Address: 127.0.0.1:9010, Sent Packets: 37, Recieved Packets: 30', 'Address: 127.0.0.1:9020, Sent Packets: 45, Recieved Packets: 44', 'Address: 127.0.0.1:9030, Sent Packets: 53, Recieved Packets: 54', 'Address: 127.0.0.1:9050, Sent Packets: 41, Recieved Packets: 40']
----------------------------------------------------------
Time: 156
['Address: 127.0.0.1:9000, Sent Packets: 43, Recieved Packets: 43', 'Address: 127.0.0.1:9010, Sent Packets: 37, Recieved Packets: 30', 'Address: 127.0.0.1:9020, Sent Packets: 46, Recieved Packets: 45', 'Address: 127.0.0.1:9030, Sent Packets: 53, Recieved Packets: 54', 'Address: 127.0.0.1:9050, Sent Packets: 42, Recieved Packets: 41']
----------------------------------------------------------
Time: 159
['Address: 127.0.0.1:9000, Sent Packets: 44, Recieved Packets: 44', 'Address: 127.0.0.1:9010, Sent Packets: 37, Recieved Packets: 30', 'Address: 127.0.0.1:9020, Sent Packets: 47, Recieved Packets: 46', 'Address: 127.0.0.1:9030, Sent Packets: 53, Recieved Packets: 54', 'Address: 127.0.0.1:9050, Sent Packets: 43, Recieved Packets: 42']
----------------------------------------------------------
Time: 160
['Address: 127.0.0.1:9000, Sent Packets: 45, Recieved Packets: 44', 'Address: 127.0.0.1:9010, Sent Packets: 37, Recieved Packets: 30', 'Address: 127.0.0.1:9020, Sent Packets: 48, Recieved Packets: 46', 'Address: 127.0.0.1:9030, Sent Packets: 53, Recieved Packets: 54', 'Address: 127.0.0.1:9050, Sent Packets: 44, Recieved Packets: 43']
----------------------------------------------------------
Time: 162
['Address: 127.0.0.1:9000, Sent Packets: 46, Recieved Packets: 44', 'Address: 127.0.0.1:9010, Sent Packets: 37, Recieved Packets: 30', 'Address: 127.0.0.1:9020, Sent Packets: 49, Recieved Packets: 47', 'Address: 127.0.0.1:9030, Sent Packets: 53, Recieved Packets: 54', 'Address: 127.0.0.1:9050, Sent Packets: 45, Recieved Packets: 44']
----------------------------------------------------------
Time: 164
['Address: 127.0.0.1:9000, Sent Packets: 47, Recieved Packets: 44', 'Address: 127.0.0.1:9010, Sent Packets: 37, Recieved Packets: 30', 'Address: 127.0.0.1:9020, Sent Packets: 50, Recieved Packets: 48', 'Address: 127.0.0.1:9030, Sent Packets: 53, Recieved Packets: 54', 'Address: 127.0.0.1:9050, Sent Packets: 46, Recieved Packets: 44']
----------------------------------------------------------
Time: 166
['Address: 127.0.0.1:9000, Sent Packets: 48, Recieved Packets: 44', 'Address: 127.0.0.1:9010, Sent Packets: 38, Recieved Packets: 30', 'Address: 127.0.0.1:9020, Sent Packets: 51, Recieved Packets: 49', 'Address: 127.0.0.1:9030, Sent Packets: 53, Recieved Packets: 54', 'Address: 127.0.0.1:9050, Sent Packets: 47, Recieved Packets: 45']
----------------------------------------------------------
Time: 168
['Address: 127.0.0.1:9000, Sent Packets: 48, Recieved Packets: 44', 'Address: 127.0.0.1:9010, Sent Packets: 38, Recieved Packets: 30', 'Address: 127.0.0.1:9020, Sent Packets: 52, Recieved Packets: 50', 'Address: 127.0.0.1:9030, Sent Packets: 53, Recieved Packets: 54', 'Address: 127.0.0.1:9050, Sent Packets: 48, Recieved Packets: 46']
----------------------------------------------------------
Time: 170
['Address: 127.0.0.1:9000, Sent Packets: 48, Recieved Packets: 44', 'Address: 127.0.0.1:9010, Sent Packets: 38, Recieved Packets: 30', 'Address: 127.0.0.1:9020, Sent Packets: 52, Recieved Packets: 50', 'Address: 127.0.0.1:9030, Sent Packets: 53, Recieved Packets: 54', 'Address: 127.0.0.1:9050, Sent Packets: 48, Recieved Packets: 46']
----------------------------------------------------------
Time: 173
['Address: 127.0.0.1:9000, Sent Packets: 48, Recieved Packets: 44', 'Address: 127.0.0.1:9010, Sent Packets: 38, Recieved Packets: 30', 'Address: 127.0.0.1:9020, Sent Packets: 52, Recieved Packets: 50', 'Address: 127.0.0.1:9030, Sent Packets: 53, Recieved Packets: 54', 'Address: 127.0.0.1:9050, Sent Packets: 48, Recieved Packets: 46']
----------------------------------------------------------
Time: 174
['Address: 127.0.0.1:9000, Sent Packets: 48, Recieved Packets: 44', 'Address: 127.0.0.1:9010, Sent Packets: 38, Recieved Packets: 30', 'Address: 127.0.0.1:9020, Sent Packets: 52, Recieved Packets: 50', 'Address: 127.0.0.1:9030, Sent Packets: 53, Recieved Packets: 54', 'Address: 127.0.0.1:9050, Sent Packets: 48, Recieved Packets: 46']
----------------------------------------------------------
Time: 176
['Address: 127.0.0.1:9000, Sent Packets: 48, Recieved Packets: 44', 'Address: 127.0.0.1:9010, Sent Packets: 38, Recieved Packets: 30', 'Address: 127.0.0.1:9020, Sent Packets: 52, Recieved Packets: 50', 'Address: 127.0.0.1:9030, Sent Packets: 53, Recieved Packets: 54', 'Address: 127.0.0.1:9050, Sent Packets: 48, Recieved Packets: 46']
----------------------------------------------------------
Time: 179
['Address: 127.0.0.1:9000, Sent Packets: 48, Recieved Packets: 44', 'Address: 127.0.0.1:9010, Sent Packets: 38, Recieved Packets: 30', 'Address: 127.0.0.1:9020, Sent Packets: 52, Recieved Packets: 50', 'Address: 127.0.0.1:9030, Sent Packets: 53, Recieved Packets: 54', 'Address: 127.0.0.1:9050, Sent Packets: 48, Recieved Packets: 46']
----------------------------------------------------------
Time: 180
['Address: 127.0.0.1:9000, Sent Packets: 48, Recieved Packets: 44', 'Address: 127.0.0.1:9010, Sent Packets: 38, Recieved Packets: 30', 'Address: 127.0.0.1:9020, Sent Packets: 52, Recieved Packets: 50', 'Address: 127.0.0.1:9030, Sent Packets: 53, Recieved Packets: 54', 'Address: 127.0.0.1:9050, Sent Packets: 48, Recieved Packets: 46']
----------------------------------------------------------
Time: 182
['Address: 127.0.0.1:9000, Sent Packets: 48, Recieved Packets: 44', 'Address: 127.0.0.1:9010, Sent Packets: 38, Recieved Packets: 30', 'Address: 127.0.0.1:9020, Sent Packets: 52, Recieved Packets: 50', 'Address: 127.0.0.1:9030, Sent Packets: 53, Recieved Packets: 54', 'Address: 127.0.0.1:9050, Sent Packets: 48, Recieved Packets: 46']
----------------------------------------------------------
Time: 184
['Address: 127.0.0.1:9000, Sent Packets: 48, Recieved Packets: 44', 'Address: 127.0.0.1:9010, Sent Packets: 38, Recieved Packets: 30', 'Address: 127.0.0.1:9020, Sent Packets: 52, Recieved Packets: 50', 'Address: 127.0.0.1:9030, Sent Packets: 53, Recieved Packets: 54', 'Address: 127.0.0.1:9050, Sent Packets: 48, Recieved Packets: 46']
----------------------------------------------------------
Time: 186
['Address: 127.0.0.1:9000, Sent Packets: 48, Recieved Packets: 44', 'Address: 127.0.0.1:9010, Sent Packets: 38, Recieved Packets: 30', 'Address: 127.0.0.1:9020, Sent Packets: 52, Recieved Packets: 50', 'Address: 127.0.0.1:9030, Sent Packets: 53, Recieved Packets: 54', 'Address: 127.0.0.1:9050, Sent Packets: 48, Recieved Packets: 46']
----------------------------------------------------------
Time: 189
['Address: 127.0.0.1:9000, Sent Packets: 48, Recieved Packets: 44', 'Address: 127.0.0.1:9010, Sent Packets: 38, Recieved Packets: 30', 'Address: 127.0.0.1:9020, Sent Packets: 52, Recieved Packets: 50', 'Address: 127.0.0.1:9030, Sent Packets: 53, Recieved Packets: 54', 'Address: 127.0.0.1:9050, Sent Packets: 48, Recieved Packets: 46']
----------------------------------------------------------
Time: 190
['Address: 127.0.0.1:9000, Sent Packets: 49, Recieved Packets: 50', 'Address: 127.0.0.1:9010, Sent Packets: 39, Recieved Packets: 35', 'Address: 127.0.0.1:9020, Sent Packets: 53, Recieved Packets: 55', 'Address: 127.0.0.1:9030, Sent Packets: 53, Recieved Packets: 55', 'Address: 127.0.0.1:9050, Sent Packets: 49, Recieved Packets: 48']
----------------------------------------------------------
Time: 192
['Address: 127.0.0.1:9000, Sent Packets: 50, Recieved Packets: 51', 'Address: 127.0.0.1:9010, Sent Packets: 40, Recieved Packets: 35', 'Address: 127.0.0.1:9020, Sent Packets: 53, Recieved Packets: 56', 'Address: 127.0.0.1:9030, Sent Packets: 54, Recieved Packets: 55', 'Address: 127.0.0.1:9050, Sent Packets: 50, Recieved Packets: 48']
----------------------------------------------------------
Time: 195
['Address: 127.0.0.1:9000, Sent Packets: 51, Recieved Packets: 52', 'Address: 127.0.0.1:9010, Sent Packets: 41, Recieved Packets: 35', 'Address: 127.0.0.1:9020, Sent Packets: 53, Recieved Packets: 57', 'Address: 127.0.0.1:9030, Sent Packets: 55, Recieved Packets: 55', 'Address: 127.0.0.1:9050, Sent Packets: 51, Recieved Packets: 48']
----------------------------------------------------------
Time: 197
['Address: 127.0.0.1:9000, Sent Packets: 51, Recieved Packets: 53', 'Address: 127.0.0.1:9010, Sent Packets: 42, Recieved Packets: 35', 'Address: 127.0.0.1:9020, Sent Packets: 53, Recieved Packets: 58', 'Address: 127.0.0.1:9030, Sent Packets: 56, Recieved Packets: 55', 'Address: 127.0.0.1:9050, Sent Packets: 52, Recieved Packets: 48']
----------------------------------------------------------
Time: 199
['Address: 127.0.0.1:9000, Sent Packets: 52, Recieved Packets: 54', 'Address: 127.0.0.1:9010, Sent Packets: 42, Recieved Packets: 35', 'Address: 127.0.0.1:9020, Sent Packets: 53, Recieved Packets: 59', 'Address: 127.0.0.1:9030, Sent Packets: 56, Recieved Packets: 55', 'Address: 127.0.0.1:9050, Sent Packets: 53, Recieved Packets: 48']
----------------------------------------------------------
Time: 201
['Address: 127.0.0.1:9000, Sent Packets: 53, Recieved Packets: 55', 'Address: 127.0.0.1:9010, Sent Packets: 42, Recieved Packets: 35', 'Address: 127.0.0.1:9020, Sent Packets: 53, Recieved Packets: 59', 'Address: 127.0.0.1:9030, Sent Packets: 56, Recieved Packets: 55', 'Address: 127.0.0.1:9050, Sent Packets: 54, Recieved Packets: 49']
----------------------------------------------------------
Time: 203
['Address: 127.0.0.1:9000, Sent Packets: 54, Recieved Packets: 56', 'Address: 127.0.0.1:9010, Sent Packets: 42, Recieved Packets: 35', 'Address: 127.0.0.1:9020, Sent Packets: 53, Recieved Packets: 59', 'Address: 127.0.0.1:9030, Sent Packets: 56, Recieved Packets: 55', 'Address: 127.0.0.1:9050, Sent Packets: 55, Recieved Packets: 49']
----------------------------------------------------------
Time: 205
['Address: 127.0.0.1:9000, Sent Packets: 55, Recieved Packets: 57', 'Address: 127.0.0.1:9010, Sent Packets: 42, Recieved Packets: 35', 'Address: 127.0.0.1:9020, Sent Packets: 53, Recieved Packets: 59', 'Address: 127.0.0.1:9030, Sent Packets: 56, Recieved Packets: 55', 'Address: 127.0.0.1:9050, Sent Packets: 56, Recieved Packets: 49']
----------------------------------------------------------
Time: 207
['Address: 127.0.0.1:9000, Sent Packets: 56, Recieved Packets: 58', 'Address: 127.0.0.1:9010, Sent Packets: 42, Recieved Packets: 35', 'Address: 127.0.0.1:9020, Sent Packets: 54, Recieved Packets: 59', 'Address: 127.0.0.1:9030, Sent Packets: 56, Recieved Packets: 55', 'Address: 127.0.0.1:9050, Sent Packets: 57, Recieved Packets: 49']
----------------------------------------------------------
Time: 209
['Address: 127.0.0.1:9000, Sent Packets: 57, Recieved Packets: 59', 'Address: 127.0.0.1:9010, Sent Packets: 42, Recieved Packets: 35', 'Address: 127.0.0.1:9020, Sent Packets: 54, Recieved Packets: 59', 'Address: 127.0.0.1:9030, Sent Packets: 56, Recieved Packets: 55', 'Address: 127.0.0.1:9050, Sent Packets: 57, Recieved Packets: 49']
----------------------------------------------------------
Time: 211
['Address: 127.0.0.1:9000, Sent Packets: 58, Recieved Packets: 60', 'Address: 127.0.0.1:9010, Sent Packets: 42, Recieved Packets: 35', 'Address: 127.0.0.1:9020, Sent Packets: 54, Recieved Packets: 59', 'Address: 127.0.0.1:9030, Sent Packets: 56, Recieved Packets: 55', 'Address: 127.0.0.1:9050, Sent Packets: 57, Recieved Packets: 49']
----------------------------------------------------------
Time: 213
['Address: 127.0.0.1:9000, Sent Packets: 59, Recieved Packets: 61', 'Address: 127.0.0.1:9010, Sent Packets: 43, Recieved Packets: 36', 'Address: 127.0.0.1:9020, Sent Packets: 54, Recieved Packets: 59', 'Address: 127.0.0.1:9030, Sent Packets: 56, Recieved Packets: 55', 'Address: 127.0.0.1:9050, Sent Packets: 57, Recieved Packets: 49']
----------------------------------------------------------
Time: 215
['Address: 127.0.0.1:9000, Sent Packets: 60, Recieved Packets: 62', 'Address: 127.0.0.1:9010, Sent Packets: 44, Recieved Packets: 37', 'Address: 127.0.0.1:9020, Sent Packets: 54, Recieved Packets: 59', 'Address: 127.0.0.1:9030, Sent Packets: 56, Recieved Packets: 55', 'Address: 127.0.0.1:9050, Sent Packets: 58, Recieved Packets: 49']
----------------------------------------------------------
Time: 217
['Address: 127.0.0.1:9000, Sent Packets: 61, Recieved Packets: 63', 'Address: 127.0.0.1:9010, Sent Packets: 45, Recieved Packets: 38', 'Address: 127.0.0.1:9020, Sent Packets: 54, Recieved Packets: 59', 'Address: 127.0.0.1:9030, Sent Packets: 56, Recieved Packets: 55', 'Address: 127.0.0.1:9050, Sent Packets: 59, Recieved Packets: 50']
----------------------------------------------------------
Time: 219
['Address: 127.0.0.1:9000, Sent Packets: 62, Recieved Packets: 64', 'Address: 127.0.0.1:9010, Sent Packets: 46, Recieved Packets: 39', 'Address: 127.0.0.1:9020, Sent Packets: 54, Recieved Packets: 59', 'Address: 127.0.0.1:9030, Sent Packets: 56, Recieved Packets: 55', 'Address: 127.0.0.1:9050, Sent Packets: 60, Recieved Packets: 51']
----------------------------------------------------------
Time: 221
['Address: 127.0.0.1:9000, Sent Packets: 63, Recieved Packets: 65', 'Address: 127.0.0.1:9010, Sent Packets: 47, Recieved Packets: 40', 'Address: 127.0.0.1:9020, Sent Packets: 54, Recieved Packets: 59', 'Address: 127.0.0.1:9030, Sent Packets: 56, Recieved Packets: 55', 'Address: 127.0.0.1:9050, Sent Packets: 61, Recieved Packets: 52']
----------------------------------------------------------
Time: 223
['Address: 127.0.0.1:9000, Sent Packets: 64, Recieved Packets: 66', 'Address: 127.0.0.1:9010, Sent Packets: 47, Recieved Packets: 40', 'Address: 127.0.0.1:9020, Sent Packets: 54, Recieved Packets: 60', 'Address: 127.0.0.1:9030, Sent Packets: 56, Recieved Packets: 55', 'Address: 127.0.0.1:9050, Sent Packets: 62, Recieved Packets: 53']
----------------------------------------------------------
Time: 225
['Address: 127.0.0.1:9000, Sent Packets: 65, Recieved Packets: 66', 'Address: 127.0.0.1:9010, Sent Packets: 48, Recieved Packets: 40', 'Address: 127.0.0.1:9020, Sent Packets: 54, Recieved Packets: 61', 'Address: 127.0.0.1:9030, Sent Packets: 56, Recieved Packets: 55', 'Address: 127.0.0.1:9050, Sent Packets: 63, Recieved Packets: 54']
----------------------------------------------------------
Time: 227
['Address: 127.0.0.1:9000, Sent Packets: 66, Recieved Packets: 67', 'Address: 127.0.0.1:9010, Sent Packets: 49, Recieved Packets: 40', 'Address: 127.0.0.1:9020, Sent Packets: 54, Recieved Packets: 62', 'Address: 127.0.0.1:9030, Sent Packets: 56, Recieved Packets: 55', 'Address: 127.0.0.1:9050, Sent Packets: 64, Recieved Packets: 55']
----------------------------------------------------------
Time: 229
['Address: 127.0.0.1:9000, Sent Packets: 67, Recieved Packets: 68', 'Address: 127.0.0.1:9010, Sent Packets: 49, Recieved Packets: 40', 'Address: 127.0.0.1:9020, Sent Packets: 55, Recieved Packets: 62', 'Address: 127.0.0.1:9030, Sent Packets: 56, Recieved Packets: 55', 'Address: 127.0.0.1:9050, Sent Packets: 65, Recieved Packets: 56']
----------------------------------------------------------
Time: 231
['Address: 127.0.0.1:9000, Sent Packets: 68, Recieved Packets: 69', 'Address: 127.0.0.1:9010, Sent Packets: 49, Recieved Packets: 40', 'Address: 127.0.0.1:9020, Sent Packets: 55, Recieved Packets: 62', 'Address: 127.0.0.1:9030, Sent Packets: 56, Recieved Packets: 55', 'Address: 127.0.0.1:9050, Sent Packets: 66, Recieved Packets: 57']
----------------------------------------------------------
Time: 233
['Address: 127.0.0.1:9000, Sent Packets: 69, Recieved Packets: 70', 'Address: 127.0.0.1:9010, Sent Packets: 49, Recieved Packets: 40', 'Address: 127.0.0.1:9020, Sent Packets: 55, Recieved Packets: 62', 'Address: 127.0.0.1:9030, Sent Packets: 56, Recieved Packets: 55', 'Address: 127.0.0.1:9050, Sent Packets: 67, Recieved Packets: 58']
----------------------------------------------------------
Time: 235
['Address: 127.0.0.1:9000, Sent Packets: 70, Recieved Packets: 70', 'Address: 127.0.0.1:9010, Sent Packets: 49, Recieved Packets: 40', 'Address: 127.0.0.1:9020, Sent Packets: 55, Recieved Packets: 62', 'Address: 127.0.0.1:9030, Sent Packets: 56, Recieved Packets: 55', 'Address: 127.0.0.1:9050, Sent Packets: 68, Recieved Packets: 59']
----------------------------------------------------------
Time: 237
['Address: 127.0.0.1:9000, Sent Packets: 71, Recieved Packets: 71', 'Address: 127.0.0.1:9010, Sent Packets: 49, Recieved Packets: 40', 'Address: 127.0.0.1:9020, Sent Packets: 56, Recieved Packets: 62', 'Address: 127.0.0.1:9030, Sent Packets: 56, Recieved Packets: 55', 'Address: 127.0.0.1:9050, Sent Packets: 69, Recieved Packets: 60']
----------------------------------------------------------
Time: 239
['Address: 127.0.0.1:9000, Sent Packets: 72, Recieved Packets: 72', 'Address: 127.0.0.1:9010, Sent Packets: 49, Recieved Packets: 40', 'Address: 127.0.0.1:9020, Sent Packets: 56, Recieved Packets: 62', 'Address: 127.0.0.1:9030, Sent Packets: 56, Recieved Packets: 55', 'Address: 127.0.0.1:9050, Sent Packets: 70, Recieved Packets: 61']
----------------------------------------------------------
Time: 241
['Address: 127.0.0.1:9000, Sent Packets: 73, Recieved Packets: 74', 'Address: 127.0.0.1:9010, Sent Packets: 50, Recieved Packets: 41', 'Address: 127.0.0.1:9020, Sent Packets: 56, Recieved Packets: 62', 'Address: 127.0.0.1:9030, Sent Packets: 56, Recieved Packets: 55', 'Address: 127.0.0.1:9050, Sent Packets: 71, Recieved Packets: 62']
----------------------------------------------------------
Time: 243
['Address: 127.0.0.1:9000, Sent Packets: 74, Recieved Packets: 75', 'Address: 127.0.0.1:9010, Sent Packets: 51, Recieved Packets: 42', 'Address: 127.0.0.1:9020, Sent Packets: 56, Recieved Packets: 62', 'Address: 127.0.0.1:9030, Sent Packets: 56, Recieved Packets: 55', 'Address: 127.0.0.1:9050, Sent Packets: 72, Recieved Packets: 63']
----------------------------------------------------------
Time: 245
['Address: 127.0.0.1:9000, Sent Packets: 75, Recieved Packets: 76', 'Address: 127.0.0.1:9010, Sent Packets: 52, Recieved Packets: 43', 'Address: 127.0.0.1:9020, Sent Packets: 56, Recieved Packets: 62', 'Address: 127.0.0.1:9030, Sent Packets: 56, Recieved Packets: 55', 'Address: 127.0.0.1:9050, Sent Packets: 73, Recieved Packets: 64']
----------------------------------------------------------
Time: 247
['Address: 127.0.0.1:9000, Sent Packets: 76, Recieved Packets: 77', 'Address: 127.0.0.1:9010, Sent Packets: 53, Recieved Packets: 44', 'Address: 127.0.0.1:9020, Sent Packets: 56, Recieved Packets: 62', 'Address: 127.0.0.1:9030, Sent Packets: 56, Recieved Packets: 55', 'Address: 127.0.0.1:9050, Sent Packets: 74, Recieved Packets: 65']
----------------------------------------------------------
Time: 249
['Address: 127.0.0.1:9000, Sent Packets: 77, Recieved Packets: 77', 'Address: 127.0.0.1:9010, Sent Packets: 54, Recieved Packets: 45', 'Address: 127.0.0.1:9020, Sent Packets: 56, Recieved Packets: 62', 'Address: 127.0.0.1:9030, Sent Packets: 56, Recieved Packets: 55', 'Address: 127.0.0.1:9050, Sent Packets: 75, Recieved Packets: 66']
----------------------------------------------------------
Time: 251
['Address: 127.0.0.1:9000, Sent Packets: 78, Recieved Packets: 77', 'Address: 127.0.0.1:9010, Sent Packets: 55, Recieved Packets: 46', 'Address: 127.0.0.1:9020, Sent Packets: 56, Recieved Packets: 62', 'Address: 127.0.0.1:9030, Sent Packets: 56, Recieved Packets: 55', 'Address: 127.0.0.1:9050, Sent Packets: 76, Recieved Packets: 67']
----------------------------------------------------------
Time: 253
['Address: 127.0.0.1:9000, Sent Packets: 79, Recieved Packets: 77', 'Address: 127.0.0.1:9010, Sent Packets: 56, Recieved Packets: 47', 'Address: 127.0.0.1:9020, Sent Packets: 56, Recieved Packets: 63', 'Address: 127.0.0.1:9030, Sent Packets: 56, Recieved Packets: 55', 'Address: 127.0.0.1:9050, Sent Packets: 77, Recieved Packets: 68']
----------------------------------------------------------
Time: 255
['Address: 127.0.0.1:9000, Sent Packets: 79, Recieved Packets: 77', 'Address: 127.0.0.1:9010, Sent Packets: 57, Recieved Packets: 48', 'Address: 127.0.0.1:9020, Sent Packets: 57, Recieved Packets: 64', 'Address: 127.0.0.1:9030, Sent Packets: 56, Recieved Packets: 55', 'Address: 127.0.0.1:9050, Sent Packets: 78, Recieved Packets: 69']
----------------------------------------------------------
Time: 257
['Address: 127.0.0.1:9000, Sent Packets: 79, Recieved Packets: 77', 'Address: 127.0.0.1:9010, Sent Packets: 58, Recieved Packets: 49', 'Address: 127.0.0.1:9020, Sent Packets: 57, Recieved Packets: 64', 'Address: 127.0.0.1:9030, Sent Packets: 56, Recieved Packets: 55', 'Address: 127.0.0.1:9050, Sent Packets: 79, Recieved Packets: 70']
----------------------------------------------------------
Time: 259
['Address: 127.0.0.1:9000, Sent Packets: 79, Recieved Packets: 77', 'Address: 127.0.0.1:9010, Sent Packets: 59, Recieved Packets: 50', 'Address: 127.0.0.1:9020, Sent Packets: 58, Recieved Packets: 65', 'Address: 127.0.0.1:9030, Sent Packets: 56, Recieved Packets: 55', 'Address: 127.0.0.1:9050, Sent Packets: 80, Recieved Packets: 71']
----------------------------------------------------------
Time: 261
['Address: 127.0.0.1:9000, Sent Packets: 79, Recieved Packets: 77', 'Address: 127.0.0.1:9010, Sent Packets: 60, Recieved Packets: 50', 'Address: 127.0.0.1:9020, Sent Packets: 59, Recieved Packets: 66', 'Address: 127.0.0.1:9030, Sent Packets: 56, Recieved Packets: 55', 'Address: 127.0.0.1:9050, Sent Packets: 81, Recieved Packets: 72']
----------------------------------------------------------
Time: 263
['Address: 127.0.0.1:9000, Sent Packets: 79, Recieved Packets: 77', 'Address: 127.0.0.1:9010, Sent Packets: 61, Recieved Packets: 50', 'Address: 127.0.0.1:9020, Sent Packets: 60, Recieved Packets: 67', 'Address: 127.0.0.1:9030, Sent Packets: 56, Recieved Packets: 55', 'Address: 127.0.0.1:9050, Sent Packets: 82, Recieved Packets: 74']
----------------------------------------------------------
Time: 265
['Address: 127.0.0.1:9000, Sent Packets: 79, Recieved Packets: 77', 'Address: 127.0.0.1:9010, Sent Packets: 62, Recieved Packets: 50', 'Address: 127.0.0.1:9020, Sent Packets: 61, Recieved Packets: 68', 'Address: 127.0.0.1:9030, Sent Packets: 56, Recieved Packets: 55', 'Address: 127.0.0.1:9050, Sent Packets: 83, Recieved Packets: 75']
----------------------------------------------------------
Time: 267
['Address: 127.0.0.1:9000, Sent Packets: 79, Recieved Packets: 77', 'Address: 127.0.0.1:9010, Sent Packets: 62, Recieved Packets: 50', 'Address: 127.0.0.1:9020, Sent Packets: 61, Recieved Packets: 69', 'Address: 127.0.0.1:9030, Sent Packets: 57, Recieved Packets: 55', 'Address: 127.0.0.1:9050, Sent Packets: 84, Recieved Packets: 76']
----------------------------------------------------------
Time: 269
['Address: 127.0.0.1:9000, Sent Packets: 79, Recieved Packets: 77', 'Address: 127.0.0.1:9010, Sent Packets: 62, Recieved Packets: 50', 'Address: 127.0.0.1:9020, Sent Packets: 62, Recieved Packets: 70', 'Address: 127.0.0.1:9030, Sent Packets: 58, Recieved Packets: 57', 'Address: 127.0.0.1:9050, Sent Packets: 85, Recieved Packets: 77']
----------------------------------------------------------
Time: 271
['Address: 127.0.0.1:9000, Sent Packets: 79, Recieved Packets: 77', 'Address: 127.0.0.1:9010, Sent Packets: 62, Recieved Packets: 50', 'Address: 127.0.0.1:9020, Sent Packets: 63, Recieved Packets: 71', 'Address: 127.0.0.1:9030, Sent Packets: 59, Recieved Packets: 58', 'Address: 127.0.0.1:9050, Sent Packets: 86, Recieved Packets: 78']
----------------------------------------------------------
Time: 273
['Address: 127.0.0.1:9000, Sent Packets: 79, Recieved Packets: 77', 'Address: 127.0.0.1:9010, Sent Packets: 62, Recieved Packets: 50', 'Address: 127.0.0.1:9020, Sent Packets: 64, Recieved Packets: 72', 'Address: 127.0.0.1:9030, Sent Packets: 60, Recieved Packets: 59', 'Address: 127.0.0.1:9050, Sent Packets: 87, Recieved Packets: 78']
----------------------------------------------------------
Time: 275
['Address: 127.0.0.1:9000, Sent Packets: 79, Recieved Packets: 77', 'Address: 127.0.0.1:9010, Sent Packets: 62, Recieved Packets: 50', 'Address: 127.0.0.1:9020, Sent Packets: 65, Recieved Packets: 73', 'Address: 127.0.0.1:9030, Sent Packets: 61, Recieved Packets: 60', 'Address: 127.0.0.1:9050, Sent Packets: 88, Recieved Packets: 80']
----------------------------------------------------------
Time: 277
['Address: 127.0.0.1:9000, Sent Packets: 79, Recieved Packets: 77', 'Address: 127.0.0.1:9010, Sent Packets: 62, Recieved Packets: 50', 'Address: 127.0.0.1:9020, Sent Packets: 66, Recieved Packets: 74', 'Address: 127.0.0.1:9030, Sent Packets: 62, Recieved Packets: 61', 'Address: 127.0.0.1:9050, Sent Packets: 89, Recieved Packets: 81']
----------------------------------------------------------
Time: 279
['Address: 127.0.0.1:9000, Sent Packets: 79, Recieved Packets: 77', 'Address: 127.0.0.1:9010, Sent Packets: 62, Recieved Packets: 50', 'Address: 127.0.0.1:9020, Sent Packets: 67, Recieved Packets: 75', 'Address: 127.0.0.1:9030, Sent Packets: 63, Recieved Packets: 62', 'Address: 127.0.0.1:9050, Sent Packets: 90, Recieved Packets: 82']
----------------------------------------------------------
Time: 281
['Address: 127.0.0.1:9000, Sent Packets: 79, Recieved Packets: 77', 'Address: 127.0.0.1:9010, Sent Packets: 62, Recieved Packets: 51', 'Address: 127.0.0.1:9020, Sent Packets: 68, Recieved Packets: 76', 'Address: 127.0.0.1:9030, Sent Packets: 64, Recieved Packets: 63', 'Address: 127.0.0.1:9050, Sent Packets: 91, Recieved Packets: 82']
----------------------------------------------------------
Time: 283
['Address: 127.0.0.1:9000, Sent Packets: 79, Recieved Packets: 77', 'Address: 127.0.0.1:9010, Sent Packets: 62, Recieved Packets: 52', 'Address: 127.0.0.1:9020, Sent Packets: 69, Recieved Packets: 77', 'Address: 127.0.0.1:9030, Sent Packets: 65, Recieved Packets: 64', 'Address: 127.0.0.1:9050, Sent Packets: 92, Recieved Packets: 82']
----------------------------------------------------------
Time: 285
['Address: 127.0.0.1:9000, Sent Packets: 79, Recieved Packets: 77', 'Address: 127.0.0.1:9010, Sent Packets: 62, Recieved Packets: 53', 'Address: 127.0.0.1:9020, Sent Packets: 70, Recieved Packets: 78', 'Address: 127.0.0.1:9030, Sent Packets: 66, Recieved Packets: 65', 'Address: 127.0.0.1:9050, Sent Packets: 93, Recieved Packets: 82']
----------------------------------------------------------
Time: 287
['Address: 127.0.0.1:9000, Sent Packets: 79, Recieved Packets: 77', 'Address: 127.0.0.1:9010, Sent Packets: 62, Recieved Packets: 54', 'Address: 127.0.0.1:9020, Sent Packets: 71, Recieved Packets: 79', 'Address: 127.0.0.1:9030, Sent Packets: 67, Recieved Packets: 66', 'Address: 127.0.0.1:9050, Sent Packets: 94, Recieved Packets: 82']
----------------------------------------------------------
Time: 289
['Address: 127.0.0.1:9000, Sent Packets: 79, Recieved Packets: 77', 'Address: 127.0.0.1:9010, Sent Packets: 63, Recieved Packets: 55', 'Address: 127.0.0.1:9020, Sent Packets: 72, Recieved Packets: 80', 'Address: 127.0.0.1:9030, Sent Packets: 68, Recieved Packets: 67', 'Address: 127.0.0.1:9050, Sent Packets: 94, Recieved Packets: 82']
----------------------------------------------------------
Time: 291
['Address: 127.0.0.1:9000, Sent Packets: 79, Recieved Packets: 78', 'Address: 127.0.0.1:9010, Sent Packets: 63, Recieved Packets: 56', 'Address: 127.0.0.1:9020, Sent Packets: 73, Recieved Packets: 80', 'Address: 127.0.0.1:9030, Sent Packets: 68, Recieved Packets: 68', 'Address: 127.0.0.1:9050, Sent Packets: 94, Recieved Packets: 82']
----------------------------------------------------------
Time: 293
['Address: 127.0.0.1:9000, Sent Packets: 79, Recieved Packets: 78', 'Address: 127.0.0.1:9010, Sent Packets: 64, Recieved Packets: 57', 'Address: 127.0.0.1:9020, Sent Packets: 74, Recieved Packets: 81', 'Address: 127.0.0.1:9030, Sent Packets: 69, Recieved Packets: 69', 'Address: 127.0.0.1:9050, Sent Packets: 94, Recieved Packets: 82']
----------------------------------------------------------
Time: 295
['Address: 127.0.0.1:9000, Sent Packets: 79, Recieved Packets: 78', 'Address: 127.0.0.1:9010, Sent Packets: 65, Recieved Packets: 58', 'Address: 127.0.0.1:9020, Sent Packets: 75, Recieved Packets: 82', 'Address: 127.0.0.1:9030, Sent Packets: 70, Recieved Packets: 70', 'Address: 127.0.0.1:9050, Sent Packets: 94, Recieved Packets: 82']
----------------------------------------------------------
Time: 297
['Address: 127.0.0.1:9000, Sent Packets: 79, Recieved Packets: 78', 'Address: 127.0.0.1:9010, Sent Packets: 66, Recieved Packets: 59', 'Address: 127.0.0.1:9020, Sent Packets: 76, Recieved Packets: 83', 'Address: 127.0.0.1:9030, Sent Packets: 71, Recieved Packets: 71', 'Address: 127.0.0.1:9050, Sent Packets: 94, Recieved Packets: 82']
----------------------------------------------------------
Time: 299
['Address: 127.0.0.1:9000, Sent Packets: 79, Recieved Packets: 78', 'Address: 127.0.0.1:9010, Sent Packets: 67, Recieved Packets: 60', 'Address: 127.0.0.1:9020, Sent Packets: 77, Recieved Packets: 84', 'Address: 127.0.0.1:9030, Sent Packets: 72, Recieved Packets: 72', 'Address: 127.0.0.1:9050, Sent Packets: 94, Recieved Packets: 82']
----------------------------------------------------------
